\relax 
\@writefile{toc}{\contentsline {section}{\numberline {1}Theory}{1}}
\newlabel{eq:grad0}{{4}{1}}
\@writefile{toc}{\contentsline {subsection}{\numberline {1.1}Unnormalized residual}{1}}
\newlabel{eq:grad1}{{7}{1}}
\@writefile{toc}{\contentsline {subsection}{\numberline {1.2}Normalized residual}{1}}
\newlabel{eq:hi}{{8}{1}}
\newlabel{eq:grad2}{{10}{2}}
\newlabel{eq:grad3}{{13}{2}}
\@writefile{toc}{\contentsline {subsection}{\numberline {1.3}Hilbert transform, analytic signal, and envelope misfit}{2}}
\@writefile{toc}{\contentsline {subsubsection}{\numberline {1.3.1}Hilbert transform}{2}}
\@writefile{toc}{\contentsline {subsubsection}{\numberline {1.3.2}Analytic signal}{3}}
\@writefile{toc}{\contentsline {subsubsection}{\numberline {1.3.3}Envelope}{3}}
\@writefile{toc}{\contentsline {subsubsection}{\numberline {1.3.4}Envelope misfit}{3}}
\newlabel{eq:adjsou0}{{23}{3}}
\@writefile{toc}{\contentsline {subsection}{\numberline {1.4}Normalization and envelope}{3}}
\@writefile{toc}{\contentsline {subsubsection}{\numberline {1.4.1}Envelope of normalized data}{4}}
\@writefile{toc}{\contentsline {subsubsection}{\numberline {1.4.2}Normalized envelope}{4}}
\@writefile{toc}{\contentsline {section}{\numberline {2}Example}{4}}
\newlabel{fig:modeleddata}{{2}{5}}
\@writefile{lof}{\contentsline {figure}{\numberline {1}{\ignorespaces Modeled data.}}{5}}
\newlabel{fig:datafunc1scale1e0}{{2(a)}{5}}
\newlabel{sub@fig:datafunc1scale1e0}{{(a)}{5}}
\newlabel{fig:datafunc1scale1e-6}{{2(b)}{5}}
\newlabel{sub@fig:datafunc1scale1e-6}{{(b)}{5}}
\newlabel{fig:datafunc1scale5e13}{{2(c)}{5}}
\newlabel{sub@fig:datafunc1scale5e13}{{(c)}{5}}
\newlabel{fig:objfunctest0func1scale1e0}{{2(d)}{5}}
\newlabel{sub@fig:objfunctest0func1scale1e0}{{(d)}{5}}
\newlabel{fig:objfunctest0func1scale1e-6}{{2(e)}{5}}
\newlabel{sub@fig:objfunctest0func1scale1e-6}{{(e)}{5}}
\newlabel{fig:objfunctest0func1scale5e13}{{2(f)}{5}}
\newlabel{sub@fig:objfunctest0func1scale5e13}{{(f)}{5}}
\newlabel{fig:test0func1}{{2}{5}}
\@writefile{lof}{\contentsline {figure}{\numberline {2}{\ignorespaces Modeled data and coefficients.}}{5}}
\@writefile{lof}{\contentsline {subfigure}{\numberline{(a)}{\ignorespaces {}}}{5}}
\@writefile{lof}{\contentsline {subfigure}{\numberline{(b)}{\ignorespaces {}}}{5}}
\@writefile{lof}{\contentsline {subfigure}{\numberline{(c)}{\ignorespaces {}}}{5}}
\@writefile{lof}{\contentsline {subfigure}{\numberline{(d)}{\ignorespaces {}}}{5}}
\@writefile{lof}{\contentsline {subfigure}{\numberline{(e)}{\ignorespaces {}}}{5}}
\@writefile{lof}{\contentsline {subfigure}{\numberline{(f)}{\ignorespaces {}}}{5}}
\newlabel{fig:datafunc2scale1e0}{{3(a)}{6}}
\newlabel{sub@fig:datafunc2scale1e0}{{(a)}{6}}
\newlabel{fig:datafunc2scale1e-6}{{3(b)}{6}}
\newlabel{sub@fig:datafunc2scale1e-6}{{(b)}{6}}
\newlabel{fig:datafunc2scale5e13}{{3(c)}{6}}
\newlabel{sub@fig:datafunc2scale5e13}{{(c)}{6}}
\newlabel{fig:objfunctest0func2scale1e0}{{3(d)}{6}}
\newlabel{sub@fig:objfunctest0func2scale1e0}{{(d)}{6}}
\newlabel{fig:objfunctest0func2scale1e-6}{{3(e)}{6}}
\newlabel{sub@fig:objfunctest0func2scale1e-6}{{(e)}{6}}
\newlabel{fig:objfunctest0func2scale5e13}{{3(f)}{6}}
\newlabel{sub@fig:objfunctest0func2scale5e13}{{(f)}{6}}
\newlabel{fig:test0func2}{{2}{6}}
\@writefile{lof}{\contentsline {figure}{\numberline {3}{\ignorespaces Modeled data and coefficients.}}{6}}
\@writefile{lof}{\contentsline {subfigure}{\numberline{(a)}{\ignorespaces {}}}{6}}
\@writefile{lof}{\contentsline {subfigure}{\numberline{(b)}{\ignorespaces {}}}{6}}
\@writefile{lof}{\contentsline {subfigure}{\numberline{(c)}{\ignorespaces {}}}{6}}
\@writefile{lof}{\contentsline {subfigure}{\numberline{(d)}{\ignorespaces {}}}{6}}
\@writefile{lof}{\contentsline {subfigure}{\numberline{(e)}{\ignorespaces {}}}{6}}
\@writefile{lof}{\contentsline {subfigure}{\numberline{(f)}{\ignorespaces {}}}{6}}
\newlabel{fig:datafunc3scale1e0}{{4(a)}{6}}
\newlabel{sub@fig:datafunc3scale1e0}{{(a)}{6}}
\newlabel{fig:datafunc3scale1e-6}{{4(b)}{6}}
\newlabel{sub@fig:datafunc3scale1e-6}{{(b)}{6}}
\newlabel{fig:datafunc3scale5e13}{{4(c)}{6}}
\newlabel{sub@fig:datafunc3scale5e13}{{(c)}{6}}
\newlabel{fig:objfunctest0func3scale1e0}{{4(d)}{6}}
\newlabel{sub@fig:objfunctest0func3scale1e0}{{(d)}{6}}
\newlabel{fig:objfunctest0func3scale1e-6}{{4(e)}{6}}
\newlabel{sub@fig:objfunctest0func3scale1e-6}{{(e)}{6}}
\newlabel{fig:objfunctest0func3scale5e13}{{4(f)}{6}}
\newlabel{sub@fig:objfunctest0func3scale5e13}{{(f)}{6}}
\newlabel{fig:test0func3}{{2}{6}}
\@writefile{lof}{\contentsline {figure}{\numberline {4}{\ignorespaces Modeled data and coefficients.}}{6}}
\@writefile{lof}{\contentsline {subfigure}{\numberline{(a)}{\ignorespaces {}}}{6}}
\@writefile{lof}{\contentsline {subfigure}{\numberline{(b)}{\ignorespaces {}}}{6}}
\@writefile{lof}{\contentsline {subfigure}{\numberline{(c)}{\ignorespaces {}}}{6}}
\@writefile{lof}{\contentsline {subfigure}{\numberline{(d)}{\ignorespaces {}}}{6}}
\@writefile{lof}{\contentsline {subfigure}{\numberline{(e)}{\ignorespaces {}}}{6}}
\@writefile{lof}{\contentsline {subfigure}{\numberline{(f)}{\ignorespaces {}}}{6}}
\newlabel{fig:datafunc4scale1e0}{{5(a)}{7}}
\newlabel{sub@fig:datafunc4scale1e0}{{(a)}{7}}
\newlabel{fig:datafunc4scale1e-6}{{5(b)}{7}}
\newlabel{sub@fig:datafunc4scale1e-6}{{(b)}{7}}
\newlabel{fig:datafunc4scale5e13}{{5(c)}{7}}
\newlabel{sub@fig:datafunc4scale5e13}{{(c)}{7}}
\newlabel{fig:objfunctest0func4scale1e0}{{5(d)}{7}}
\newlabel{sub@fig:objfunctest0func4scale1e0}{{(d)}{7}}
\newlabel{fig:objfunctest0func4scale1e-6}{{5(e)}{7}}
\newlabel{sub@fig:objfunctest0func4scale1e-6}{{(e)}{7}}
\newlabel{fig:objfunctest0func4scale5e13}{{5(f)}{7}}
\newlabel{sub@fig:objfunctest0func4scale5e13}{{(f)}{7}}
\newlabel{fig:test0func4}{{2}{7}}
\@writefile{lof}{\contentsline {figure}{\numberline {5}{\ignorespaces Modeled data and coefficients.}}{7}}
\@writefile{lof}{\contentsline {subfigure}{\numberline{(a)}{\ignorespaces {}}}{7}}
\@writefile{lof}{\contentsline {subfigure}{\numberline{(b)}{\ignorespaces {}}}{7}}
\@writefile{lof}{\contentsline {subfigure}{\numberline{(c)}{\ignorespaces {}}}{7}}
\@writefile{lof}{\contentsline {subfigure}{\numberline{(d)}{\ignorespaces {}}}{7}}
\@writefile{lof}{\contentsline {subfigure}{\numberline{(e)}{\ignorespaces {}}}{7}}
\@writefile{lof}{\contentsline {subfigure}{\numberline{(f)}{\ignorespaces {}}}{7}}
\newlabel{fig:a}{{6(a)}{7}}
\newlabel{sub@fig:a}{{(a)}{7}}
\newlabel{fig:hmodeleddata}{{6(b)}{7}}
\newlabel{sub@fig:hmodeleddata}{{(b)}{7}}
\newlabel{fig:modeleddataa}{{2}{7}}
\@writefile{lof}{\contentsline {figure}{\numberline {6}{\ignorespaces Modeled data.}}{7}}
\@writefile{lof}{\contentsline {subfigure}{\numberline{(a)}{\ignorespaces {}}}{7}}
\@writefile{lof}{\contentsline {subfigure}{\numberline{(b)}{\ignorespaces {}}}{7}}
\newlabel{fig:hdatafunc1scale1e0}{{7(a)}{8}}
\newlabel{sub@fig:hdatafunc1scale1e0}{{(a)}{8}}
\newlabel{fig:hdatafunc1scale1e-6}{{7(b)}{8}}
\newlabel{sub@fig:hdatafunc1scale1e-6}{{(b)}{8}}
\newlabel{fig:hdatafunc1scale5e13}{{7(c)}{8}}
\newlabel{sub@fig:hdatafunc1scale5e13}{{(c)}{8}}
\newlabel{fig:objfunctest1func1scale1e0}{{7(d)}{8}}
\newlabel{sub@fig:objfunctest1func1scale1e0}{{(d)}{8}}
\newlabel{fig:objfunctest1func1scale1e-6}{{7(e)}{8}}
\newlabel{sub@fig:objfunctest1func1scale1e-6}{{(e)}{8}}
\newlabel{fig:objfunctest1func1scale5e13}{{7(f)}{8}}
\newlabel{sub@fig:objfunctest1func1scale5e13}{{(f)}{8}}
\newlabel{fig:test1func1}{{2}{8}}
\@writefile{lof}{\contentsline {figure}{\numberline {7}{\ignorespaces Modeled hdata and coefficients.}}{8}}
\@writefile{lof}{\contentsline {subfigure}{\numberline{(a)}{\ignorespaces {}}}{8}}
\@writefile{lof}{\contentsline {subfigure}{\numberline{(b)}{\ignorespaces {}}}{8}}
\@writefile{lof}{\contentsline {subfigure}{\numberline{(c)}{\ignorespaces {}}}{8}}
\@writefile{lof}{\contentsline {subfigure}{\numberline{(d)}{\ignorespaces {}}}{8}}
\@writefile{lof}{\contentsline {subfigure}{\numberline{(e)}{\ignorespaces {}}}{8}}
\@writefile{lof}{\contentsline {subfigure}{\numberline{(f)}{\ignorespaces {}}}{8}}
\newlabel{fig:hdatafunc2scale1e0}{{8(a)}{8}}
\newlabel{sub@fig:hdatafunc2scale1e0}{{(a)}{8}}
\newlabel{fig:hdatafunc2scale1e-6}{{8(b)}{8}}
\newlabel{sub@fig:hdatafunc2scale1e-6}{{(b)}{8}}
\newlabel{fig:hdatafunc2scale5e13}{{8(c)}{8}}
\newlabel{sub@fig:hdatafunc2scale5e13}{{(c)}{8}}
\newlabel{fig:objfunctest1func2scale1e0}{{8(d)}{8}}
\newlabel{sub@fig:objfunctest1func2scale1e0}{{(d)}{8}}
\newlabel{fig:objfunctest1func2scale1e-6}{{8(e)}{8}}
\newlabel{sub@fig:objfunctest1func2scale1e-6}{{(e)}{8}}
\newlabel{fig:objfunctest1func2scale5e13}{{8(f)}{8}}
\newlabel{sub@fig:objfunctest1func2scale5e13}{{(f)}{8}}
\newlabel{fig:test1func2}{{2}{8}}
\@writefile{lof}{\contentsline {figure}{\numberline {8}{\ignorespaces Modeled hdata and coefficients.}}{8}}
\@writefile{lof}{\contentsline {subfigure}{\numberline{(a)}{\ignorespaces {}}}{8}}
\@writefile{lof}{\contentsline {subfigure}{\numberline{(b)}{\ignorespaces {}}}{8}}
\@writefile{lof}{\contentsline {subfigure}{\numberline{(c)}{\ignorespaces {}}}{8}}
\@writefile{lof}{\contentsline {subfigure}{\numberline{(d)}{\ignorespaces {}}}{8}}
\@writefile{lof}{\contentsline {subfigure}{\numberline{(e)}{\ignorespaces {}}}{8}}
\@writefile{lof}{\contentsline {subfigure}{\numberline{(f)}{\ignorespaces {}}}{8}}
\newlabel{fig:hdatafunc3scale1e0}{{9(a)}{9}}
\newlabel{sub@fig:hdatafunc3scale1e0}{{(a)}{9}}
\newlabel{fig:hdatafunc3scale1e-6}{{9(b)}{9}}
\newlabel{sub@fig:hdatafunc3scale1e-6}{{(b)}{9}}
\newlabel{fig:hdatafunc3scale5e13}{{9(c)}{9}}
\newlabel{sub@fig:hdatafunc3scale5e13}{{(c)}{9}}
\newlabel{fig:objfunctest1func3scale1e0}{{9(d)}{9}}
\newlabel{sub@fig:objfunctest1func3scale1e0}{{(d)}{9}}
\newlabel{fig:objfunctest1func3scale1e-6}{{9(e)}{9}}
\newlabel{sub@fig:objfunctest1func3scale1e-6}{{(e)}{9}}
\newlabel{fig:objfunctest1func3scale5e13}{{9(f)}{9}}
\newlabel{sub@fig:objfunctest1func3scale5e13}{{(f)}{9}}
\newlabel{fig:test1func3}{{2}{9}}
\@writefile{lof}{\contentsline {figure}{\numberline {9}{\ignorespaces Modeled hdata and coefficients.}}{9}}
\@writefile{lof}{\contentsline {subfigure}{\numberline{(a)}{\ignorespaces {}}}{9}}
\@writefile{lof}{\contentsline {subfigure}{\numberline{(b)}{\ignorespaces {}}}{9}}
\@writefile{lof}{\contentsline {subfigure}{\numberline{(c)}{\ignorespaces {}}}{9}}
\@writefile{lof}{\contentsline {subfigure}{\numberline{(d)}{\ignorespaces {}}}{9}}
\@writefile{lof}{\contentsline {subfigure}{\numberline{(e)}{\ignorespaces {}}}{9}}
\@writefile{lof}{\contentsline {subfigure}{\numberline{(f)}{\ignorespaces {}}}{9}}
\newlabel{fig:hdatafunc4scale1e0}{{10(a)}{9}}
\newlabel{sub@fig:hdatafunc4scale1e0}{{(a)}{9}}
\newlabel{fig:hdatafunc4scale1e-6}{{10(b)}{9}}
\newlabel{sub@fig:hdatafunc4scale1e-6}{{(b)}{9}}
\newlabel{fig:hdatafunc4scale5e13}{{10(c)}{9}}
\newlabel{sub@fig:hdatafunc4scale5e13}{{(c)}{9}}
\newlabel{fig:objfunctest1func4scale1e0}{{10(d)}{9}}
\newlabel{sub@fig:objfunctest1func4scale1e0}{{(d)}{9}}
\newlabel{fig:objfunctest1func4scale1e-6}{{10(e)}{9}}
\newlabel{sub@fig:objfunctest1func4scale1e-6}{{(e)}{9}}
\newlabel{fig:objfunctest1func4scale5e13}{{10(f)}{9}}
\newlabel{sub@fig:objfunctest1func4scale5e13}{{(f)}{9}}
\newlabel{fig:test1func4}{{2}{9}}
\@writefile{lof}{\contentsline {figure}{\numberline {10}{\ignorespaces Modeled data and coefficients.}}{9}}
\@writefile{lof}{\contentsline {subfigure}{\numberline{(a)}{\ignorespaces {}}}{9}}
\@writefile{lof}{\contentsline {subfigure}{\numberline{(b)}{\ignorespaces {}}}{9}}
\@writefile{lof}{\contentsline {subfigure}{\numberline{(c)}{\ignorespaces {}}}{9}}
\@writefile{lof}{\contentsline {subfigure}{\numberline{(d)}{\ignorespaces {}}}{9}}
\@writefile{lof}{\contentsline {subfigure}{\numberline{(e)}{\ignorespaces {}}}{9}}
\@writefile{lof}{\contentsline {subfigure}{\numberline{(f)}{\ignorespaces {}}}{9}}
\newlabel{fig:pmodeleddataa}{{2}{10}}
\@writefile{lof}{\contentsline {figure}{\numberline {11}{\ignorespaces Modeled data.}}{10}}
\newlabel{fig:phdatafunc1scale1e0}{{12(a)}{10}}
\newlabel{sub@fig:phdatafunc1scale1e0}{{(a)}{10}}
\newlabel{fig:phdatafunc1scale1e-6}{{12(b)}{10}}
\newlabel{sub@fig:phdatafunc1scale1e-6}{{(b)}{10}}
\newlabel{fig:phdatafunc1scale5e13}{{12(c)}{10}}
\newlabel{sub@fig:phdatafunc1scale5e13}{{(c)}{10}}
\newlabel{fig:pobjfunctest1func1scale1e0}{{12(d)}{10}}
\newlabel{sub@fig:pobjfunctest1func1scale1e0}{{(d)}{10}}
\newlabel{fig:pobjfunctest1func1scale1e-6}{{12(e)}{10}}
\newlabel{sub@fig:pobjfunctest1func1scale1e-6}{{(e)}{10}}
\newlabel{fig:pobjfunctest1func1scale5e13}{{12(f)}{10}}
\newlabel{sub@fig:pobjfunctest1func1scale5e13}{{(f)}{10}}
\newlabel{fig:test1func1}{{2}{10}}
\@writefile{lof}{\contentsline {figure}{\numberline {12}{\ignorespaces Modeled phdata and coefficients.}}{10}}
\@writefile{lof}{\contentsline {subfigure}{\numberline{(a)}{\ignorespaces {}}}{10}}
\@writefile{lof}{\contentsline {subfigure}{\numberline{(b)}{\ignorespaces {}}}{10}}
\@writefile{lof}{\contentsline {subfigure}{\numberline{(c)}{\ignorespaces {}}}{10}}
\@writefile{lof}{\contentsline {subfigure}{\numberline{(d)}{\ignorespaces {}}}{10}}
\@writefile{lof}{\contentsline {subfigure}{\numberline{(e)}{\ignorespaces {}}}{10}}
\@writefile{lof}{\contentsline {subfigure}{\numberline{(f)}{\ignorespaces {}}}{10}}
\newlabel{fig:phdatafunc2scale1e0}{{13(a)}{11}}
\newlabel{sub@fig:phdatafunc2scale1e0}{{(a)}{11}}
\newlabel{fig:phdatafunc2scale1e-6}{{13(b)}{11}}
\newlabel{sub@fig:phdatafunc2scale1e-6}{{(b)}{11}}
\newlabel{fig:phdatafunc2scale5e13}{{13(c)}{11}}
\newlabel{sub@fig:phdatafunc2scale5e13}{{(c)}{11}}
\newlabel{fig:pobjfunctest1func2scale1e0}{{13(d)}{11}}
\newlabel{sub@fig:pobjfunctest1func2scale1e0}{{(d)}{11}}
\newlabel{fig:pobjfunctest1func2scale1e-6}{{13(e)}{11}}
\newlabel{sub@fig:pobjfunctest1func2scale1e-6}{{(e)}{11}}
\newlabel{fig:pobjfunctest1func2scale5e13}{{13(f)}{11}}
\newlabel{sub@fig:pobjfunctest1func2scale5e13}{{(f)}{11}}
\newlabel{fig:test1func2}{{2}{11}}
\@writefile{lof}{\contentsline {figure}{\numberline {13}{\ignorespaces Modeled phdata and coefficients.}}{11}}
\@writefile{lof}{\contentsline {subfigure}{\numberline{(a)}{\ignorespaces {}}}{11}}
\@writefile{lof}{\contentsline {subfigure}{\numberline{(b)}{\ignorespaces {}}}{11}}
\@writefile{lof}{\contentsline {subfigure}{\numberline{(c)}{\ignorespaces {}}}{11}}
\@writefile{lof}{\contentsline {subfigure}{\numberline{(d)}{\ignorespaces {}}}{11}}
\@writefile{lof}{\contentsline {subfigure}{\numberline{(e)}{\ignorespaces {}}}{11}}
\@writefile{lof}{\contentsline {subfigure}{\numberline{(f)}{\ignorespaces {}}}{11}}
\newlabel{fig:phdatafunc3scale1e0}{{14(a)}{11}}
\newlabel{sub@fig:phdatafunc3scale1e0}{{(a)}{11}}
\newlabel{fig:phdatafunc3scale1e-6}{{14(b)}{11}}
\newlabel{sub@fig:phdatafunc3scale1e-6}{{(b)}{11}}
\newlabel{fig:phdatafunc3scale5e13}{{14(c)}{11}}
\newlabel{sub@fig:phdatafunc3scale5e13}{{(c)}{11}}
\newlabel{fig:pobjfunctest1func3scale1e0}{{14(d)}{11}}
\newlabel{sub@fig:pobjfunctest1func3scale1e0}{{(d)}{11}}
\newlabel{fig:pobjfunctest1func3scale1e-6}{{14(e)}{11}}
\newlabel{sub@fig:pobjfunctest1func3scale1e-6}{{(e)}{11}}
\newlabel{fig:pobjfunctest1func3scale5e13}{{14(f)}{11}}
\newlabel{sub@fig:pobjfunctest1func3scale5e13}{{(f)}{11}}
\newlabel{fig:test1func3}{{2}{11}}
\@writefile{lof}{\contentsline {figure}{\numberline {14}{\ignorespaces Modeled phdata and coefficients.}}{11}}
\@writefile{lof}{\contentsline {subfigure}{\numberline{(a)}{\ignorespaces {}}}{11}}
\@writefile{lof}{\contentsline {subfigure}{\numberline{(b)}{\ignorespaces {}}}{11}}
\@writefile{lof}{\contentsline {subfigure}{\numberline{(c)}{\ignorespaces {}}}{11}}
\@writefile{lof}{\contentsline {subfigure}{\numberline{(d)}{\ignorespaces {}}}{11}}
\@writefile{lof}{\contentsline {subfigure}{\numberline{(e)}{\ignorespaces {}}}{11}}
\@writefile{lof}{\contentsline {subfigure}{\numberline{(f)}{\ignorespaces {}}}{11}}
\newlabel{fig:phdatafunc4scale1e0}{{15(a)}{12}}
\newlabel{sub@fig:phdatafunc4scale1e0}{{(a)}{12}}
\newlabel{fig:phdatafunc4scale1e-6}{{15(b)}{12}}
\newlabel{sub@fig:phdatafunc4scale1e-6}{{(b)}{12}}
\newlabel{fig:phdatafunc4scale5e13}{{15(c)}{12}}
\newlabel{sub@fig:phdatafunc4scale5e13}{{(c)}{12}}
\newlabel{fig:pobjfunctest1func4scale1e0}{{15(d)}{12}}
\newlabel{sub@fig:pobjfunctest1func4scale1e0}{{(d)}{12}}
\newlabel{fig:pobjfunctest1func4scale1e-6}{{15(e)}{12}}
\newlabel{sub@fig:pobjfunctest1func4scale1e-6}{{(e)}{12}}
\newlabel{fig:pobjfunctest1func4scale5e13}{{15(f)}{12}}
\newlabel{sub@fig:pobjfunctest1func4scale5e13}{{(f)}{12}}
\newlabel{fig:test1func4}{{2}{12}}
\@writefile{lof}{\contentsline {figure}{\numberline {15}{\ignorespaces Modeled data and coefficients.}}{12}}
\@writefile{lof}{\contentsline {subfigure}{\numberline{(a)}{\ignorespaces {}}}{12}}
\@writefile{lof}{\contentsline {subfigure}{\numberline{(b)}{\ignorespaces {}}}{12}}
\@writefile{lof}{\contentsline {subfigure}{\numberline{(c)}{\ignorespaces {}}}{12}}
\@writefile{lof}{\contentsline {subfigure}{\numberline{(d)}{\ignorespaces {}}}{12}}
\@writefile{lof}{\contentsline {subfigure}{\numberline{(e)}{\ignorespaces {}}}{12}}
\@writefile{lof}{\contentsline {subfigure}{\numberline{(f)}{\ignorespaces {}}}{12}}
\newlabel{fig:emodeleddata}{{2}{12}}
\@writefile{lof}{\contentsline {figure}{\numberline {16}{\ignorespaces Modeled data.}}{12}}
\newlabel{fig:edatafunc1scale1e0}{{17(a)}{13}}
\newlabel{sub@fig:edatafunc1scale1e0}{{(a)}{13}}
\newlabel{fig:edatafunc1scale1e-6}{{17(b)}{13}}
\newlabel{sub@fig:edatafunc1scale1e-6}{{(b)}{13}}
\newlabel{fig:edatafunc1scale5e13}{{17(c)}{13}}
\newlabel{sub@fig:edatafunc1scale5e13}{{(c)}{13}}
\newlabel{fig:objfunctest2func1scale1e0}{{17(d)}{13}}
\newlabel{sub@fig:objfunctest2func1scale1e0}{{(d)}{13}}
\newlabel{fig:objfunctest2func1scale1e-6}{{17(e)}{13}}
\newlabel{sub@fig:objfunctest2func1scale1e-6}{{(e)}{13}}
\newlabel{fig:objfunctest2func1scale5e13}{{17(f)}{13}}
\newlabel{sub@fig:objfunctest2func1scale5e13}{{(f)}{13}}
\newlabel{fig:test2func1}{{2}{13}}
\@writefile{lof}{\contentsline {figure}{\numberline {17}{\ignorespaces Modeled edata and coefficients.}}{13}}
\@writefile{lof}{\contentsline {subfigure}{\numberline{(a)}{\ignorespaces {}}}{13}}
\@writefile{lof}{\contentsline {subfigure}{\numberline{(b)}{\ignorespaces {}}}{13}}
\@writefile{lof}{\contentsline {subfigure}{\numberline{(c)}{\ignorespaces {}}}{13}}
\@writefile{lof}{\contentsline {subfigure}{\numberline{(d)}{\ignorespaces {}}}{13}}
\@writefile{lof}{\contentsline {subfigure}{\numberline{(e)}{\ignorespaces {}}}{13}}
\@writefile{lof}{\contentsline {subfigure}{\numberline{(f)}{\ignorespaces {}}}{13}}
\newlabel{fig:edatafunc2scale1e0}{{18(a)}{13}}
\newlabel{sub@fig:edatafunc2scale1e0}{{(a)}{13}}
\newlabel{fig:edatafunc2scale1e-6}{{18(b)}{13}}
\newlabel{sub@fig:edatafunc2scale1e-6}{{(b)}{13}}
\newlabel{fig:edatafunc2scale5e13}{{18(c)}{13}}
\newlabel{sub@fig:edatafunc2scale5e13}{{(c)}{13}}
\newlabel{fig:objfunctest2func2scale1e0}{{18(d)}{13}}
\newlabel{sub@fig:objfunctest2func2scale1e0}{{(d)}{13}}
\newlabel{fig:objfunctest2func2scale1e-6}{{18(e)}{13}}
\newlabel{sub@fig:objfunctest2func2scale1e-6}{{(e)}{13}}
\newlabel{fig:objfunctest2func2scale5e13}{{18(f)}{13}}
\newlabel{sub@fig:objfunctest2func2scale5e13}{{(f)}{13}}
\newlabel{fig:test2func2}{{2}{13}}
\@writefile{lof}{\contentsline {figure}{\numberline {18}{\ignorespaces Modeled edata and coefficients.}}{13}}
\@writefile{lof}{\contentsline {subfigure}{\numberline{(a)}{\ignorespaces {}}}{13}}
\@writefile{lof}{\contentsline {subfigure}{\numberline{(b)}{\ignorespaces {}}}{13}}
\@writefile{lof}{\contentsline {subfigure}{\numberline{(c)}{\ignorespaces {}}}{13}}
\@writefile{lof}{\contentsline {subfigure}{\numberline{(d)}{\ignorespaces {}}}{13}}
\@writefile{lof}{\contentsline {subfigure}{\numberline{(e)}{\ignorespaces {}}}{13}}
\@writefile{lof}{\contentsline {subfigure}{\numberline{(f)}{\ignorespaces {}}}{13}}
\newlabel{fig:edatafunc3scale1e0}{{19(a)}{14}}
\newlabel{sub@fig:edatafunc3scale1e0}{{(a)}{14}}
\newlabel{fig:edatafunc3scale1e-6}{{19(b)}{14}}
\newlabel{sub@fig:edatafunc3scale1e-6}{{(b)}{14}}
\newlabel{fig:edatafunc3scale5e13}{{19(c)}{14}}
\newlabel{sub@fig:edatafunc3scale5e13}{{(c)}{14}}
\newlabel{fig:objfunctest2func3scale1e0}{{19(d)}{14}}
\newlabel{sub@fig:objfunctest2func3scale1e0}{{(d)}{14}}
\newlabel{fig:objfunctest2func3scale1e-6}{{19(e)}{14}}
\newlabel{sub@fig:objfunctest2func3scale1e-6}{{(e)}{14}}
\newlabel{fig:objfunctest2func3scale5e13}{{19(f)}{14}}
\newlabel{sub@fig:objfunctest2func3scale5e13}{{(f)}{14}}
\newlabel{fig:test2func3}{{2}{14}}
\@writefile{lof}{\contentsline {figure}{\numberline {19}{\ignorespaces Modeled edata and coefficients.}}{14}}
\@writefile{lof}{\contentsline {subfigure}{\numberline{(a)}{\ignorespaces {}}}{14}}
\@writefile{lof}{\contentsline {subfigure}{\numberline{(b)}{\ignorespaces {}}}{14}}
\@writefile{lof}{\contentsline {subfigure}{\numberline{(c)}{\ignorespaces {}}}{14}}
\@writefile{lof}{\contentsline {subfigure}{\numberline{(d)}{\ignorespaces {}}}{14}}
\@writefile{lof}{\contentsline {subfigure}{\numberline{(e)}{\ignorespaces {}}}{14}}
\@writefile{lof}{\contentsline {subfigure}{\numberline{(f)}{\ignorespaces {}}}{14}}
\newlabel{fig:edatafunc4scale1e0}{{20(a)}{14}}
\newlabel{sub@fig:edatafunc4scale1e0}{{(a)}{14}}
\newlabel{fig:edatafunc4scale1e-6}{{20(b)}{14}}
\newlabel{sub@fig:edatafunc4scale1e-6}{{(b)}{14}}
\newlabel{fig:edatafunc4scale5e13}{{20(c)}{14}}
\newlabel{sub@fig:edatafunc4scale5e13}{{(c)}{14}}
\newlabel{fig:objfunctest2func4scale1e0}{{20(d)}{14}}
\newlabel{sub@fig:objfunctest2func4scale1e0}{{(d)}{14}}
\newlabel{fig:objfunctest2func4scale1e-6}{{20(e)}{14}}
\newlabel{sub@fig:objfunctest2func4scale1e-6}{{(e)}{14}}
\newlabel{fig:objfunctest2func4scale5e13}{{20(f)}{14}}
\newlabel{sub@fig:objfunctest2func4scale5e13}{{(f)}{14}}
\newlabel{fig:test2func4}{{2}{14}}
\@writefile{lof}{\contentsline {figure}{\numberline {20}{\ignorespaces Modeled data and coefficients.}}{14}}
\@writefile{lof}{\contentsline {subfigure}{\numberline{(a)}{\ignorespaces {}}}{14}}
\@writefile{lof}{\contentsline {subfigure}{\numberline{(b)}{\ignorespaces {}}}{14}}
\@writefile{lof}{\contentsline {subfigure}{\numberline{(c)}{\ignorespaces {}}}{14}}
\@writefile{lof}{\contentsline {subfigure}{\numberline{(d)}{\ignorespaces {}}}{14}}
\@writefile{lof}{\contentsline {subfigure}{\numberline{(e)}{\ignorespaces {}}}{14}}
\@writefile{lof}{\contentsline {subfigure}{\numberline{(f)}{\ignorespaces {}}}{14}}
\newlabel{fig:ehmodeleddata}{{2}{15}}
\@writefile{lof}{\contentsline {figure}{\numberline {21}{\ignorespaces Modeled data.}}{15}}
\newlabel{fig:ehdatafunc1scale1e0}{{22(a)}{15}}
\newlabel{sub@fig:ehdatafunc1scale1e0}{{(a)}{15}}
\newlabel{fig:ehdatafunc1scale1e-6}{{22(b)}{15}}
\newlabel{sub@fig:ehdatafunc1scale1e-6}{{(b)}{15}}
\newlabel{fig:ehdatafunc1scale5e13}{{22(c)}{15}}
\newlabel{sub@fig:ehdatafunc1scale5e13}{{(c)}{15}}
\newlabel{fig:objfunctest3func1scale1e0}{{22(d)}{15}}
\newlabel{sub@fig:objfunctest3func1scale1e0}{{(d)}{15}}
\newlabel{fig:objfunctest3func1scale1e-6}{{22(e)}{15}}
\newlabel{sub@fig:objfunctest3func1scale1e-6}{{(e)}{15}}
\newlabel{fig:objfunctest3func1scale5e13}{{22(f)}{15}}
\newlabel{sub@fig:objfunctest3func1scale5e13}{{(f)}{15}}
\newlabel{fig:test3func1}{{2}{15}}
\@writefile{lof}{\contentsline {figure}{\numberline {22}{\ignorespaces Modeled ehdata and coefficients.}}{15}}
\@writefile{lof}{\contentsline {subfigure}{\numberline{(a)}{\ignorespaces {}}}{15}}
\@writefile{lof}{\contentsline {subfigure}{\numberline{(b)}{\ignorespaces {}}}{15}}
\@writefile{lof}{\contentsline {subfigure}{\numberline{(c)}{\ignorespaces {}}}{15}}
\@writefile{lof}{\contentsline {subfigure}{\numberline{(d)}{\ignorespaces {}}}{15}}
\@writefile{lof}{\contentsline {subfigure}{\numberline{(e)}{\ignorespaces {}}}{15}}
\@writefile{lof}{\contentsline {subfigure}{\numberline{(f)}{\ignorespaces {}}}{15}}
\newlabel{fig:ehdatafunc2scale1e0}{{23(a)}{16}}
\newlabel{sub@fig:ehdatafunc2scale1e0}{{(a)}{16}}
\newlabel{fig:ehdatafunc2scale1e-6}{{23(b)}{16}}
\newlabel{sub@fig:ehdatafunc2scale1e-6}{{(b)}{16}}
\newlabel{fig:ehdatafunc2scale5e13}{{23(c)}{16}}
\newlabel{sub@fig:ehdatafunc2scale5e13}{{(c)}{16}}
\newlabel{fig:objfunctest3func2scale1e0}{{23(d)}{16}}
\newlabel{sub@fig:objfunctest3func2scale1e0}{{(d)}{16}}
\newlabel{fig:objfunctest3func2scale1e-6}{{23(e)}{16}}
\newlabel{sub@fig:objfunctest3func2scale1e-6}{{(e)}{16}}
\newlabel{fig:objfunctest3func2scale5e13}{{23(f)}{16}}
\newlabel{sub@fig:objfunctest3func2scale5e13}{{(f)}{16}}
\newlabel{fig:test3func2}{{2}{16}}
\@writefile{lof}{\contentsline {figure}{\numberline {23}{\ignorespaces Modeled ehdata and coefficients.}}{16}}
\@writefile{lof}{\contentsline {subfigure}{\numberline{(a)}{\ignorespaces {}}}{16}}
\@writefile{lof}{\contentsline {subfigure}{\numberline{(b)}{\ignorespaces {}}}{16}}
\@writefile{lof}{\contentsline {subfigure}{\numberline{(c)}{\ignorespaces {}}}{16}}
\@writefile{lof}{\contentsline {subfigure}{\numberline{(d)}{\ignorespaces {}}}{16}}
\@writefile{lof}{\contentsline {subfigure}{\numberline{(e)}{\ignorespaces {}}}{16}}
\@writefile{lof}{\contentsline {subfigure}{\numberline{(f)}{\ignorespaces {}}}{16}}
\newlabel{fig:ehdatafunc3scale1e0}{{24(a)}{17}}
\newlabel{sub@fig:ehdatafunc3scale1e0}{{(a)}{17}}
\newlabel{fig:ehdatafunc3scale1e-6}{{24(b)}{17}}
\newlabel{sub@fig:ehdatafunc3scale1e-6}{{(b)}{17}}
\newlabel{fig:ehdatafunc3scale5e13}{{24(c)}{17}}
\newlabel{sub@fig:ehdatafunc3scale5e13}{{(c)}{17}}
\newlabel{fig:objfunctest3func3scale1e0}{{24(d)}{17}}
\newlabel{sub@fig:objfunctest3func3scale1e0}{{(d)}{17}}
\newlabel{fig:objfunctest3func3scale1e-6}{{24(e)}{17}}
\newlabel{sub@fig:objfunctest3func3scale1e-6}{{(e)}{17}}
\newlabel{fig:objfunctest3func3scale5e13}{{24(f)}{17}}
\newlabel{sub@fig:objfunctest3func3scale5e13}{{(f)}{17}}
\newlabel{fig:test3func3}{{2}{17}}
\@writefile{lof}{\contentsline {figure}{\numberline {24}{\ignorespaces Modeled ehdata and coefficients.}}{17}}
\@writefile{lof}{\contentsline {subfigure}{\numberline{(a)}{\ignorespaces {}}}{17}}
\@writefile{lof}{\contentsline {subfigure}{\numberline{(b)}{\ignorespaces {}}}{17}}
\@writefile{lof}{\contentsline {subfigure}{\numberline{(c)}{\ignorespaces {}}}{17}}
\@writefile{lof}{\contentsline {subfigure}{\numberline{(d)}{\ignorespaces {}}}{17}}
\@writefile{lof}{\contentsline {subfigure}{\numberline{(e)}{\ignorespaces {}}}{17}}
\@writefile{lof}{\contentsline {subfigure}{\numberline{(f)}{\ignorespaces {}}}{17}}
\newlabel{fig:ehdatafunc4scale1e0}{{25(a)}{17}}
\newlabel{sub@fig:ehdatafunc4scale1e0}{{(a)}{17}}
\newlabel{fig:ehdatafunc4scale1e-6}{{25(b)}{17}}
\newlabel{sub@fig:ehdatafunc4scale1e-6}{{(b)}{17}}
\newlabel{fig:ehdatafunc4scale5e13}{{25(c)}{17}}
\newlabel{sub@fig:ehdatafunc4scale5e13}{{(c)}{17}}
\newlabel{fig:objfunctest3func4scale1e0}{{25(d)}{17}}
\newlabel{sub@fig:objfunctest3func4scale1e0}{{(d)}{17}}
\newlabel{fig:objfunctest3func4scale1e-6}{{25(e)}{17}}
\newlabel{sub@fig:objfunctest3func4scale1e-6}{{(e)}{17}}
\newlabel{fig:objfunctest3func4scale5e13}{{25(f)}{17}}
\newlabel{sub@fig:objfunctest3func4scale5e13}{{(f)}{17}}
\newlabel{fig:test3func4}{{2}{17}}
\@writefile{lof}{\contentsline {figure}{\numberline {25}{\ignorespaces Modeled data and coefficients.}}{17}}
\@writefile{lof}{\contentsline {subfigure}{\numberline{(a)}{\ignorespaces {}}}{17}}
\@writefile{lof}{\contentsline {subfigure}{\numberline{(b)}{\ignorespaces {}}}{17}}
\@writefile{lof}{\contentsline {subfigure}{\numberline{(c)}{\ignorespaces {}}}{17}}
\@writefile{lof}{\contentsline {subfigure}{\numberline{(d)}{\ignorespaces {}}}{17}}
\@writefile{lof}{\contentsline {subfigure}{\numberline{(e)}{\ignorespaces {}}}{17}}
\@writefile{lof}{\contentsline {subfigure}{\numberline{(f)}{\ignorespaces {}}}{17}}
\newlabel{fig:pehmodeleddata}{{2}{18}}
\@writefile{lof}{\contentsline {figure}{\numberline {26}{\ignorespaces Modeled data.}}{18}}
\newlabel{fig:pehdatafunc1scale1e0}{{27(a)}{18}}
\newlabel{sub@fig:pehdatafunc1scale1e0}{{(a)}{18}}
\newlabel{fig:pehdatafunc1scale1e-6}{{27(b)}{18}}
\newlabel{sub@fig:pehdatafunc1scale1e-6}{{(b)}{18}}
\newlabel{fig:pehdatafunc1scale5e13}{{27(c)}{18}}
\newlabel{sub@fig:pehdatafunc1scale5e13}{{(c)}{18}}
\newlabel{fig:pobjfunctest3func1scale1e0}{{27(d)}{18}}
\newlabel{sub@fig:pobjfunctest3func1scale1e0}{{(d)}{18}}
\newlabel{fig:pobjfunctest3func1scale1e-6}{{27(e)}{18}}
\newlabel{sub@fig:pobjfunctest3func1scale1e-6}{{(e)}{18}}
\newlabel{fig:pobjfunctest3func1scale5e13}{{27(f)}{18}}
\newlabel{sub@fig:pobjfunctest3func1scale5e13}{{(f)}{18}}
\newlabel{fig:test3func1}{{2}{18}}
\@writefile{lof}{\contentsline {figure}{\numberline {27}{\ignorespaces Modeled pehdata and coefficients.}}{18}}
\@writefile{lof}{\contentsline {subfigure}{\numberline{(a)}{\ignorespaces {}}}{18}}
\@writefile{lof}{\contentsline {subfigure}{\numberline{(b)}{\ignorespaces {}}}{18}}
\@writefile{lof}{\contentsline {subfigure}{\numberline{(c)}{\ignorespaces {}}}{18}}
\@writefile{lof}{\contentsline {subfigure}{\numberline{(d)}{\ignorespaces {}}}{18}}
\@writefile{lof}{\contentsline {subfigure}{\numberline{(e)}{\ignorespaces {}}}{18}}
\@writefile{lof}{\contentsline {subfigure}{\numberline{(f)}{\ignorespaces {}}}{18}}
\newlabel{fig:pehdatafunc2scale1e0}{{28(a)}{19}}
\newlabel{sub@fig:pehdatafunc2scale1e0}{{(a)}{19}}
\newlabel{fig:pehdatafunc2scale1e-6}{{28(b)}{19}}
\newlabel{sub@fig:pehdatafunc2scale1e-6}{{(b)}{19}}
\newlabel{fig:pehdatafunc2scale5e13}{{28(c)}{19}}
\newlabel{sub@fig:pehdatafunc2scale5e13}{{(c)}{19}}
\newlabel{fig:pobjfunctest3func2scale1e0}{{28(d)}{19}}
\newlabel{sub@fig:pobjfunctest3func2scale1e0}{{(d)}{19}}
\newlabel{fig:pobjfunctest3func2scale1e-6}{{28(e)}{19}}
\newlabel{sub@fig:pobjfunctest3func2scale1e-6}{{(e)}{19}}
\newlabel{fig:pobjfunctest3func2scale5e13}{{28(f)}{19}}
\newlabel{sub@fig:pobjfunctest3func2scale5e13}{{(f)}{19}}
\newlabel{fig:test3func2}{{2}{19}}
\@writefile{lof}{\contentsline {figure}{\numberline {28}{\ignorespaces Modeled pehdata and coefficients.}}{19}}
\@writefile{lof}{\contentsline {subfigure}{\numberline{(a)}{\ignorespaces {}}}{19}}
\@writefile{lof}{\contentsline {subfigure}{\numberline{(b)}{\ignorespaces {}}}{19}}
\@writefile{lof}{\contentsline {subfigure}{\numberline{(c)}{\ignorespaces {}}}{19}}
\@writefile{lof}{\contentsline {subfigure}{\numberline{(d)}{\ignorespaces {}}}{19}}
\@writefile{lof}{\contentsline {subfigure}{\numberline{(e)}{\ignorespaces {}}}{19}}
\@writefile{lof}{\contentsline {subfigure}{\numberline{(f)}{\ignorespaces {}}}{19}}
\newlabel{fig:pehdatafunc3scale1e0}{{29(a)}{19}}
\newlabel{sub@fig:pehdatafunc3scale1e0}{{(a)}{19}}
\newlabel{fig:pehdatafunc3scale1e-6}{{29(b)}{19}}
\newlabel{sub@fig:pehdatafunc3scale1e-6}{{(b)}{19}}
\newlabel{fig:pehdatafunc3scale5e13}{{29(c)}{19}}
\newlabel{sub@fig:pehdatafunc3scale5e13}{{(c)}{19}}
\newlabel{fig:pobjfunctest3func3scale1e0}{{29(d)}{19}}
\newlabel{sub@fig:pobjfunctest3func3scale1e0}{{(d)}{19}}
\newlabel{fig:pobjfunctest3func3scale1e-6}{{29(e)}{19}}
\newlabel{sub@fig:pobjfunctest3func3scale1e-6}{{(e)}{19}}
\newlabel{fig:pobjfunctest3func3scale5e13}{{29(f)}{19}}
\newlabel{sub@fig:pobjfunctest3func3scale5e13}{{(f)}{19}}
\newlabel{fig:test3func3}{{2}{19}}
\@writefile{lof}{\contentsline {figure}{\numberline {29}{\ignorespaces Modeled pehdata and coefficients.}}{19}}
\@writefile{lof}{\contentsline {subfigure}{\numberline{(a)}{\ignorespaces {}}}{19}}
\@writefile{lof}{\contentsline {subfigure}{\numberline{(b)}{\ignorespaces {}}}{19}}
\@writefile{lof}{\contentsline {subfigure}{\numberline{(c)}{\ignorespaces {}}}{19}}
\@writefile{lof}{\contentsline {subfigure}{\numberline{(d)}{\ignorespaces {}}}{19}}
\@writefile{lof}{\contentsline {subfigure}{\numberline{(e)}{\ignorespaces {}}}{19}}
\@writefile{lof}{\contentsline {subfigure}{\numberline{(f)}{\ignorespaces {}}}{19}}
\newlabel{fig:pehdatafunc4scale1e0}{{30(a)}{20}}
\newlabel{sub@fig:pehdatafunc4scale1e0}{{(a)}{20}}
\newlabel{fig:pehdatafunc4scale1e-6}{{30(b)}{20}}
\newlabel{sub@fig:pehdatafunc4scale1e-6}{{(b)}{20}}
\newlabel{fig:pehdatafunc4scale5e13}{{30(c)}{20}}
\newlabel{sub@fig:pehdatafunc4scale5e13}{{(c)}{20}}
\newlabel{fig:pobjfunctest3func4scale1e0}{{30(d)}{20}}
\newlabel{sub@fig:pobjfunctest3func4scale1e0}{{(d)}{20}}
\newlabel{fig:pobjfunctest3func4scale1e-6}{{30(e)}{20}}
\newlabel{sub@fig:pobjfunctest3func4scale1e-6}{{(e)}{20}}
\newlabel{fig:pobjfunctest3func4scale5e13}{{30(f)}{20}}
\newlabel{sub@fig:pobjfunctest3func4scale5e13}{{(f)}{20}}
\newlabel{fig:test3func4}{{2}{20}}
\@writefile{lof}{\contentsline {figure}{\numberline {30}{\ignorespaces Modeled data and coefficients.}}{20}}
\@writefile{lof}{\contentsline {subfigure}{\numberline{(a)}{\ignorespaces {}}}{20}}
\@writefile{lof}{\contentsline {subfigure}{\numberline{(b)}{\ignorespaces {}}}{20}}
\@writefile{lof}{\contentsline {subfigure}{\numberline{(c)}{\ignorespaces {}}}{20}}
\@writefile{lof}{\contentsline {subfigure}{\numberline{(d)}{\ignorespaces {}}}{20}}
\@writefile{lof}{\contentsline {subfigure}{\numberline{(e)}{\ignorespaces {}}}{20}}
\@writefile{lof}{\contentsline {subfigure}{\numberline{(f)}{\ignorespaces {}}}{20}}
\newlabel{fig:hemodeleddata}{{2}{20}}
\@writefile{lof}{\contentsline {figure}{\numberline {31}{\ignorespaces Modeled data.}}{20}}
\newlabel{fig:hedatafunc1scale1e0}{{32(a)}{21}}
\newlabel{sub@fig:hedatafunc1scale1e0}{{(a)}{21}}
\newlabel{fig:hedatafunc1scale1e-6}{{32(b)}{21}}
\newlabel{sub@fig:hedatafunc1scale1e-6}{{(b)}{21}}
\newlabel{fig:hedatafunc1scale5e13}{{32(c)}{21}}
\newlabel{sub@fig:hedatafunc1scale5e13}{{(c)}{21}}
\newlabel{fig:objfunctest4func1scale1e0}{{32(d)}{21}}
\newlabel{sub@fig:objfunctest4func1scale1e0}{{(d)}{21}}
\newlabel{fig:objfunctest4func1scale1e-6}{{32(e)}{21}}
\newlabel{sub@fig:objfunctest4func1scale1e-6}{{(e)}{21}}
\newlabel{fig:objfunctest4func1scale5e13}{{32(f)}{21}}
\newlabel{sub@fig:objfunctest4func1scale5e13}{{(f)}{21}}
\newlabel{fig:test4func1}{{2}{21}}
\@writefile{lof}{\contentsline {figure}{\numberline {32}{\ignorespaces Modeled hedata and coefficients.}}{21}}
\@writefile{lof}{\contentsline {subfigure}{\numberline{(a)}{\ignorespaces {}}}{21}}
\@writefile{lof}{\contentsline {subfigure}{\numberline{(b)}{\ignorespaces {}}}{21}}
\@writefile{lof}{\contentsline {subfigure}{\numberline{(c)}{\ignorespaces {}}}{21}}
\@writefile{lof}{\contentsline {subfigure}{\numberline{(d)}{\ignorespaces {}}}{21}}
\@writefile{lof}{\contentsline {subfigure}{\numberline{(e)}{\ignorespaces {}}}{21}}
\@writefile{lof}{\contentsline {subfigure}{\numberline{(f)}{\ignorespaces {}}}{21}}
\newlabel{fig:hedatafunc2scale1e0}{{33(a)}{21}}
\newlabel{sub@fig:hedatafunc2scale1e0}{{(a)}{21}}
\newlabel{fig:hedatafunc2scale1e-6}{{33(b)}{21}}
\newlabel{sub@fig:hedatafunc2scale1e-6}{{(b)}{21}}
\newlabel{fig:hedatafunc2scale5e13}{{33(c)}{21}}
\newlabel{sub@fig:hedatafunc2scale5e13}{{(c)}{21}}
\newlabel{fig:objfunctest4func2scale1e0}{{33(d)}{21}}
\newlabel{sub@fig:objfunctest4func2scale1e0}{{(d)}{21}}
\newlabel{fig:objfunctest4func2scale1e-6}{{33(e)}{21}}
\newlabel{sub@fig:objfunctest4func2scale1e-6}{{(e)}{21}}
\newlabel{fig:objfunctest4func2scale5e13}{{33(f)}{21}}
\newlabel{sub@fig:objfunctest4func2scale5e13}{{(f)}{21}}
\newlabel{fig:test4func2}{{2}{21}}
\@writefile{lof}{\contentsline {figure}{\numberline {33}{\ignorespaces Modeled hedata and coefficients.}}{21}}
\@writefile{lof}{\contentsline {subfigure}{\numberline{(a)}{\ignorespaces {}}}{21}}
\@writefile{lof}{\contentsline {subfigure}{\numberline{(b)}{\ignorespaces {}}}{21}}
\@writefile{lof}{\contentsline {subfigure}{\numberline{(c)}{\ignorespaces {}}}{21}}
\@writefile{lof}{\contentsline {subfigure}{\numberline{(d)}{\ignorespaces {}}}{21}}
\@writefile{lof}{\contentsline {subfigure}{\numberline{(e)}{\ignorespaces {}}}{21}}
\@writefile{lof}{\contentsline {subfigure}{\numberline{(f)}{\ignorespaces {}}}{21}}
\newlabel{fig:hedatafunc3scale1e0}{{34(a)}{22}}
\newlabel{sub@fig:hedatafunc3scale1e0}{{(a)}{22}}
\newlabel{fig:hedatafunc3scale1e-6}{{34(b)}{22}}
\newlabel{sub@fig:hedatafunc3scale1e-6}{{(b)}{22}}
\newlabel{fig:hedatafunc3scale5e13}{{34(c)}{22}}
\newlabel{sub@fig:hedatafunc3scale5e13}{{(c)}{22}}
\newlabel{fig:objfunctest4func3scale1e0}{{34(d)}{22}}
\newlabel{sub@fig:objfunctest4func3scale1e0}{{(d)}{22}}
\newlabel{fig:objfunctest4func3scale1e-6}{{34(e)}{22}}
\newlabel{sub@fig:objfunctest4func3scale1e-6}{{(e)}{22}}
\newlabel{fig:objfunctest4func3scale5e13}{{34(f)}{22}}
\newlabel{sub@fig:objfunctest4func3scale5e13}{{(f)}{22}}
\newlabel{fig:test4func3}{{2}{22}}
\@writefile{lof}{\contentsline {figure}{\numberline {34}{\ignorespaces Modeled hedata and coefficients.}}{22}}
\@writefile{lof}{\contentsline {subfigure}{\numberline{(a)}{\ignorespaces {}}}{22}}
\@writefile{lof}{\contentsline {subfigure}{\numberline{(b)}{\ignorespaces {}}}{22}}
\@writefile{lof}{\contentsline {subfigure}{\numberline{(c)}{\ignorespaces {}}}{22}}
\@writefile{lof}{\contentsline {subfigure}{\numberline{(d)}{\ignorespaces {}}}{22}}
\@writefile{lof}{\contentsline {subfigure}{\numberline{(e)}{\ignorespaces {}}}{22}}
\@writefile{lof}{\contentsline {subfigure}{\numberline{(f)}{\ignorespaces {}}}{22}}
\newlabel{fig:hedatafunc4scale1e0}{{35(a)}{22}}
\newlabel{sub@fig:hedatafunc4scale1e0}{{(a)}{22}}
\newlabel{fig:hedatafunc4scale1e-6}{{35(b)}{22}}
\newlabel{sub@fig:hedatafunc4scale1e-6}{{(b)}{22}}
\newlabel{fig:hedatafunc4scale5e13}{{35(c)}{22}}
\newlabel{sub@fig:hedatafunc4scale5e13}{{(c)}{22}}
\newlabel{fig:objfunctest4func4scale1e0}{{35(d)}{22}}
\newlabel{sub@fig:objfunctest4func4scale1e0}{{(d)}{22}}
\newlabel{fig:objfunctest4func4scale1e-6}{{35(e)}{22}}
\newlabel{sub@fig:objfunctest4func4scale1e-6}{{(e)}{22}}
\newlabel{fig:objfunctest4func4scale5e13}{{35(f)}{22}}
\newlabel{sub@fig:objfunctest4func4scale5e13}{{(f)}{22}}
\newlabel{fig:test3func4}{{2}{22}}
\@writefile{lof}{\contentsline {figure}{\numberline {35}{\ignorespaces Modeled data and coefficients.}}{22}}
\@writefile{lof}{\contentsline {subfigure}{\numberline{(a)}{\ignorespaces {}}}{22}}
\@writefile{lof}{\contentsline {subfigure}{\numberline{(b)}{\ignorespaces {}}}{22}}
\@writefile{lof}{\contentsline {subfigure}{\numberline{(c)}{\ignorespaces {}}}{22}}
\@writefile{lof}{\contentsline {subfigure}{\numberline{(d)}{\ignorespaces {}}}{22}}
\@writefile{lof}{\contentsline {subfigure}{\numberline{(e)}{\ignorespaces {}}}{22}}
\@writefile{lof}{\contentsline {subfigure}{\numberline{(f)}{\ignorespaces {}}}{22}}
\newlabel{fig:phemodeleddata}{{2}{23}}
\@writefile{lof}{\contentsline {figure}{\numberline {36}{\ignorespaces Modeled data.}}{23}}
\newlabel{fig:phedatafunc1scale1e0}{{37(a)}{23}}
\newlabel{sub@fig:phedatafunc1scale1e0}{{(a)}{23}}
\newlabel{fig:phedatafunc1scale1e-6}{{37(b)}{23}}
\newlabel{sub@fig:phedatafunc1scale1e-6}{{(b)}{23}}
\newlabel{fig:phedatafunc1scale5e13}{{37(c)}{23}}
\newlabel{sub@fig:phedatafunc1scale5e13}{{(c)}{23}}
\newlabel{fig:pobjfunctest4func1scale1e0}{{37(d)}{23}}
\newlabel{sub@fig:pobjfunctest4func1scale1e0}{{(d)}{23}}
\newlabel{fig:pobjfunctest4func1scale1e-6}{{37(e)}{23}}
\newlabel{sub@fig:pobjfunctest4func1scale1e-6}{{(e)}{23}}
\newlabel{fig:pobjfunctest4func1scale5e13}{{37(f)}{23}}
\newlabel{sub@fig:pobjfunctest4func1scale5e13}{{(f)}{23}}
\newlabel{fig:test4func1}{{2}{23}}
\@writefile{lof}{\contentsline {figure}{\numberline {37}{\ignorespaces Modeled phedata and coefficients.}}{23}}
\@writefile{lof}{\contentsline {subfigure}{\numberline{(a)}{\ignorespaces {}}}{23}}
\@writefile{lof}{\contentsline {subfigure}{\numberline{(b)}{\ignorespaces {}}}{23}}
\@writefile{lof}{\contentsline {subfigure}{\numberline{(c)}{\ignorespaces {}}}{23}}
\@writefile{lof}{\contentsline {subfigure}{\numberline{(d)}{\ignorespaces {}}}{23}}
\@writefile{lof}{\contentsline {subfigure}{\numberline{(e)}{\ignorespaces {}}}{23}}
\@writefile{lof}{\contentsline {subfigure}{\numberline{(f)}{\ignorespaces {}}}{23}}
\newlabel{fig:phedatafunc2scale1e0}{{38(a)}{24}}
\newlabel{sub@fig:phedatafunc2scale1e0}{{(a)}{24}}
\newlabel{fig:phedatafunc2scale1e-6}{{38(b)}{24}}
\newlabel{sub@fig:phedatafunc2scale1e-6}{{(b)}{24}}
\newlabel{fig:phedatafunc2scale5e13}{{38(c)}{24}}
\newlabel{sub@fig:phedatafunc2scale5e13}{{(c)}{24}}
\newlabel{fig:pobjfunctest4func2scale1e0}{{38(d)}{24}}
\newlabel{sub@fig:pobjfunctest4func2scale1e0}{{(d)}{24}}
\newlabel{fig:pobjfunctest4func2scale1e-6}{{38(e)}{24}}
\newlabel{sub@fig:pobjfunctest4func2scale1e-6}{{(e)}{24}}
\newlabel{fig:pobjfunctest4func2scale5e13}{{38(f)}{24}}
\newlabel{sub@fig:pobjfunctest4func2scale5e13}{{(f)}{24}}
\newlabel{fig:test4func2}{{2}{24}}
\@writefile{lof}{\contentsline {figure}{\numberline {38}{\ignorespaces Modeled phedata and coefficients.}}{24}}
\@writefile{lof}{\contentsline {subfigure}{\numberline{(a)}{\ignorespaces {}}}{24}}
\@writefile{lof}{\contentsline {subfigure}{\numberline{(b)}{\ignorespaces {}}}{24}}
\@writefile{lof}{\contentsline {subfigure}{\numberline{(c)}{\ignorespaces {}}}{24}}
\@writefile{lof}{\contentsline {subfigure}{\numberline{(d)}{\ignorespaces {}}}{24}}
\@writefile{lof}{\contentsline {subfigure}{\numberline{(e)}{\ignorespaces {}}}{24}}
\@writefile{lof}{\contentsline {subfigure}{\numberline{(f)}{\ignorespaces {}}}{24}}
\newlabel{fig:phedatafunc3scale1e0}{{39(a)}{24}}
\newlabel{sub@fig:phedatafunc3scale1e0}{{(a)}{24}}
\newlabel{fig:phedatafunc3scale1e-6}{{39(b)}{24}}
\newlabel{sub@fig:phedatafunc3scale1e-6}{{(b)}{24}}
\newlabel{fig:phedatafunc3scale5e13}{{39(c)}{24}}
\newlabel{sub@fig:phedatafunc3scale5e13}{{(c)}{24}}
\newlabel{fig:pobjfunctest4func3scale1e0}{{39(d)}{24}}
\newlabel{sub@fig:pobjfunctest4func3scale1e0}{{(d)}{24}}
\newlabel{fig:pobjfunctest4func3scale1e-6}{{39(e)}{24}}
\newlabel{sub@fig:pobjfunctest4func3scale1e-6}{{(e)}{24}}
\newlabel{fig:pobjfunctest4func3scale5e13}{{39(f)}{24}}
\newlabel{sub@fig:pobjfunctest4func3scale5e13}{{(f)}{24}}
\newlabel{fig:test4func3}{{2}{24}}
\@writefile{lof}{\contentsline {figure}{\numberline {39}{\ignorespaces Modeled phedata and coefficients.}}{24}}
\@writefile{lof}{\contentsline {subfigure}{\numberline{(a)}{\ignorespaces {}}}{24}}
\@writefile{lof}{\contentsline {subfigure}{\numberline{(b)}{\ignorespaces {}}}{24}}
\@writefile{lof}{\contentsline {subfigure}{\numberline{(c)}{\ignorespaces {}}}{24}}
\@writefile{lof}{\contentsline {subfigure}{\numberline{(d)}{\ignorespaces {}}}{24}}
\@writefile{lof}{\contentsline {subfigure}{\numberline{(e)}{\ignorespaces {}}}{24}}
\@writefile{lof}{\contentsline {subfigure}{\numberline{(f)}{\ignorespaces {}}}{24}}
\newlabel{fig:phedatafunc4scale1e0}{{40(a)}{25}}
\newlabel{sub@fig:phedatafunc4scale1e0}{{(a)}{25}}
\newlabel{fig:phedatafunc4scale1e-6}{{40(b)}{25}}
\newlabel{sub@fig:phedatafunc4scale1e-6}{{(b)}{25}}
\newlabel{fig:phedatafunc4scale5e13}{{40(c)}{25}}
\newlabel{sub@fig:phedatafunc4scale5e13}{{(c)}{25}}
\newlabel{fig:pobjfunctest4func4scale1e0}{{40(d)}{25}}
\newlabel{sub@fig:pobjfunctest4func4scale1e0}{{(d)}{25}}
\newlabel{fig:pobjfunctest4func4scale1e-6}{{40(e)}{25}}
\newlabel{sub@fig:pobjfunctest4func4scale1e-6}{{(e)}{25}}
\newlabel{fig:pobjfunctest4func4scale5e13}{{40(f)}{25}}
\newlabel{sub@fig:pobjfunctest4func4scale5e13}{{(f)}{25}}
\newlabel{fig:test3func4}{{2}{25}}
\@writefile{lof}{\contentsline {figure}{\numberline {40}{\ignorespaces Modeled data and coefficients.}}{25}}
\@writefile{lof}{\contentsline {subfigure}{\numberline{(a)}{\ignorespaces {}}}{25}}
\@writefile{lof}{\contentsline {subfigure}{\numberline{(b)}{\ignorespaces {}}}{25}}
\@writefile{lof}{\contentsline {subfigure}{\numberline{(c)}{\ignorespaces {}}}{25}}
\@writefile{lof}{\contentsline {subfigure}{\numberline{(d)}{\ignorespaces {}}}{25}}
\@writefile{lof}{\contentsline {subfigure}{\numberline{(e)}{\ignorespaces {}}}{25}}
\@writefile{lof}{\contentsline {subfigure}{\numberline{(f)}{\ignorespaces {}}}{25}}
\newlabel{fig:amodeleddata}{{2}{25}}
\@writefile{lof}{\contentsline {figure}{\numberline {41}{\ignorespaces Modeled data.}}{25}}
\newlabel{fig:adatafunc1scale1e0}{{42(a)}{26}}
\newlabel{sub@fig:adatafunc1scale1e0}{{(a)}{26}}
\newlabel{fig:adatafunc1scale1e-6}{{42(b)}{26}}
\newlabel{sub@fig:adatafunc1scale1e-6}{{(b)}{26}}
\newlabel{fig:adatafunc1scale5e13}{{42(c)}{26}}
\newlabel{sub@fig:adatafunc1scale5e13}{{(c)}{26}}
\newlabel{fig:objfunctest5func1scale1e0}{{42(d)}{26}}
\newlabel{sub@fig:objfunctest5func1scale1e0}{{(d)}{26}}
\newlabel{fig:objfunctest5func1scale1e-6}{{42(e)}{26}}
\newlabel{sub@fig:objfunctest5func1scale1e-6}{{(e)}{26}}
\newlabel{fig:objfunctest5func1scale5e13}{{42(f)}{26}}
\newlabel{sub@fig:objfunctest5func1scale5e13}{{(f)}{26}}
\newlabel{fig:test5func1}{{2}{26}}
\@writefile{lof}{\contentsline {figure}{\numberline {42}{\ignorespaces Modeled adata and coefficients.}}{26}}
\@writefile{lof}{\contentsline {subfigure}{\numberline{(a)}{\ignorespaces {}}}{26}}
\@writefile{lof}{\contentsline {subfigure}{\numberline{(b)}{\ignorespaces {}}}{26}}
\@writefile{lof}{\contentsline {subfigure}{\numberline{(c)}{\ignorespaces {}}}{26}}
\@writefile{lof}{\contentsline {subfigure}{\numberline{(d)}{\ignorespaces {}}}{26}}
\@writefile{lof}{\contentsline {subfigure}{\numberline{(e)}{\ignorespaces {}}}{26}}
\@writefile{lof}{\contentsline {subfigure}{\numberline{(f)}{\ignorespaces {}}}{26}}
\newlabel{fig:adatafunc2scale1e0}{{43(a)}{26}}
\newlabel{sub@fig:adatafunc2scale1e0}{{(a)}{26}}
\newlabel{fig:adatafunc2scale1e-6}{{43(b)}{26}}
\newlabel{sub@fig:adatafunc2scale1e-6}{{(b)}{26}}
\newlabel{fig:adatafunc2scale5e13}{{43(c)}{26}}
\newlabel{sub@fig:adatafunc2scale5e13}{{(c)}{26}}
\newlabel{fig:objfunctest5func2scale1e0}{{43(d)}{26}}
\newlabel{sub@fig:objfunctest5func2scale1e0}{{(d)}{26}}
\newlabel{fig:objfunctest5func2scale1e-6}{{43(e)}{26}}
\newlabel{sub@fig:objfunctest5func2scale1e-6}{{(e)}{26}}
\newlabel{fig:objfunctest5func2scale5e13}{{43(f)}{26}}
\newlabel{sub@fig:objfunctest5func2scale5e13}{{(f)}{26}}
\newlabel{fig:test5func2}{{2}{26}}
\@writefile{lof}{\contentsline {figure}{\numberline {43}{\ignorespaces Modeled adata and coefficients.}}{26}}
\@writefile{lof}{\contentsline {subfigure}{\numberline{(a)}{\ignorespaces {}}}{26}}
\@writefile{lof}{\contentsline {subfigure}{\numberline{(b)}{\ignorespaces {}}}{26}}
\@writefile{lof}{\contentsline {subfigure}{\numberline{(c)}{\ignorespaces {}}}{26}}
\@writefile{lof}{\contentsline {subfigure}{\numberline{(d)}{\ignorespaces {}}}{26}}
\@writefile{lof}{\contentsline {subfigure}{\numberline{(e)}{\ignorespaces {}}}{26}}
\@writefile{lof}{\contentsline {subfigure}{\numberline{(f)}{\ignorespaces {}}}{26}}
\newlabel{fig:adatafunc3scale1e0}{{44(a)}{27}}
\newlabel{sub@fig:adatafunc3scale1e0}{{(a)}{27}}
\newlabel{fig:adatafunc3scale1e-6}{{44(b)}{27}}
\newlabel{sub@fig:adatafunc3scale1e-6}{{(b)}{27}}
\newlabel{fig:adatafunc3scale5e13}{{44(c)}{27}}
\newlabel{sub@fig:adatafunc3scale5e13}{{(c)}{27}}
\newlabel{fig:objfunctest5func3scale1e0}{{44(d)}{27}}
\newlabel{sub@fig:objfunctest5func3scale1e0}{{(d)}{27}}
\newlabel{fig:objfunctest5func3scale1e-6}{{44(e)}{27}}
\newlabel{sub@fig:objfunctest5func3scale1e-6}{{(e)}{27}}
\newlabel{fig:objfunctest5func3scale5e13}{{44(f)}{27}}
\newlabel{sub@fig:objfunctest5func3scale5e13}{{(f)}{27}}
\newlabel{fig:test5func3}{{2}{27}}
\@writefile{lof}{\contentsline {figure}{\numberline {44}{\ignorespaces Modeled adata and coefficients.}}{27}}
\@writefile{lof}{\contentsline {subfigure}{\numberline{(a)}{\ignorespaces {}}}{27}}
\@writefile{lof}{\contentsline {subfigure}{\numberline{(b)}{\ignorespaces {}}}{27}}
\@writefile{lof}{\contentsline {subfigure}{\numberline{(c)}{\ignorespaces {}}}{27}}
\@writefile{lof}{\contentsline {subfigure}{\numberline{(d)}{\ignorespaces {}}}{27}}
\@writefile{lof}{\contentsline {subfigure}{\numberline{(e)}{\ignorespaces {}}}{27}}
\@writefile{lof}{\contentsline {subfigure}{\numberline{(f)}{\ignorespaces {}}}{27}}
\newlabel{fig:adatafunc4scale1e0}{{45(a)}{27}}
\newlabel{sub@fig:adatafunc4scale1e0}{{(a)}{27}}
\newlabel{fig:adatafunc4scale1e-6}{{45(b)}{27}}
\newlabel{sub@fig:adatafunc4scale1e-6}{{(b)}{27}}
\newlabel{fig:adatafunc4scale5e13}{{45(c)}{27}}
\newlabel{sub@fig:adatafunc4scale5e13}{{(c)}{27}}
\newlabel{fig:objfunctest5func4scale1e0}{{45(d)}{27}}
\newlabel{sub@fig:objfunctest5func4scale1e0}{{(d)}{27}}
\newlabel{fig:objfunctest5func4scale1e-6}{{45(e)}{27}}
\newlabel{sub@fig:objfunctest5func4scale1e-6}{{(e)}{27}}
\newlabel{fig:objfunctest5func4scale5e13}{{45(f)}{27}}
\newlabel{sub@fig:objfunctest5func4scale5e13}{{(f)}{27}}
\newlabel{fig:test3func4}{{2}{27}}
\@writefile{lof}{\contentsline {figure}{\numberline {45}{\ignorespaces Modeled data and coefficients.}}{27}}
\@writefile{lof}{\contentsline {subfigure}{\numberline{(a)}{\ignorespaces {}}}{27}}
\@writefile{lof}{\contentsline {subfigure}{\numberline{(b)}{\ignorespaces {}}}{27}}
\@writefile{lof}{\contentsline {subfigure}{\numberline{(c)}{\ignorespaces {}}}{27}}
\@writefile{lof}{\contentsline {subfigure}{\numberline{(d)}{\ignorespaces {}}}{27}}
\@writefile{lof}{\contentsline {subfigure}{\numberline{(e)}{\ignorespaces {}}}{27}}
\@writefile{lof}{\contentsline {subfigure}{\numberline{(f)}{\ignorespaces {}}}{27}}
\newlabel{fig:pamodeleddata}{{2}{28}}
\@writefile{lof}{\contentsline {figure}{\numberline {46}{\ignorespaces Modeled data.}}{28}}
\newlabel{fig:padatafunc1scale1e0}{{47(a)}{29}}
\newlabel{sub@fig:padatafunc1scale1e0}{{(a)}{29}}
\newlabel{fig:padatafunc1scale1e-6}{{47(b)}{29}}
\newlabel{sub@fig:padatafunc1scale1e-6}{{(b)}{29}}
\newlabel{fig:padatafunc1scale5e13}{{47(c)}{29}}
\newlabel{sub@fig:padatafunc1scale5e13}{{(c)}{29}}
\newlabel{fig:pobjfunctest5func1scale1e0}{{47(d)}{29}}
\newlabel{sub@fig:pobjfunctest5func1scale1e0}{{(d)}{29}}
\newlabel{fig:pobjfunctest5func1scale1e-6}{{47(e)}{29}}
\newlabel{sub@fig:pobjfunctest5func1scale1e-6}{{(e)}{29}}
\newlabel{fig:pobjfunctest5func1scale5e13}{{47(f)}{29}}
\newlabel{sub@fig:pobjfunctest5func1scale5e13}{{(f)}{29}}
\newlabel{fig:test5func1}{{2}{29}}
\@writefile{lof}{\contentsline {figure}{\numberline {47}{\ignorespaces Modeled padata and coefficients.}}{29}}
\@writefile{lof}{\contentsline {subfigure}{\numberline{(a)}{\ignorespaces {}}}{29}}
\@writefile{lof}{\contentsline {subfigure}{\numberline{(b)}{\ignorespaces {}}}{29}}
\@writefile{lof}{\contentsline {subfigure}{\numberline{(c)}{\ignorespaces {}}}{29}}
\@writefile{lof}{\contentsline {subfigure}{\numberline{(d)}{\ignorespaces {}}}{29}}
\@writefile{lof}{\contentsline {subfigure}{\numberline{(e)}{\ignorespaces {}}}{29}}
\@writefile{lof}{\contentsline {subfigure}{\numberline{(f)}{\ignorespaces {}}}{29}}
\newlabel{fig:padatafunc2scale1e0}{{48(a)}{29}}
\newlabel{sub@fig:padatafunc2scale1e0}{{(a)}{29}}
\newlabel{fig:padatafunc2scale1e-6}{{48(b)}{29}}
\newlabel{sub@fig:padatafunc2scale1e-6}{{(b)}{29}}
\newlabel{fig:padatafunc2scale5e13}{{48(c)}{29}}
\newlabel{sub@fig:padatafunc2scale5e13}{{(c)}{29}}
\newlabel{fig:pobjfunctest5func2scale1e0}{{48(d)}{29}}
\newlabel{sub@fig:pobjfunctest5func2scale1e0}{{(d)}{29}}
\newlabel{fig:pobjfunctest5func2scale1e-6}{{48(e)}{29}}
\newlabel{sub@fig:pobjfunctest5func2scale1e-6}{{(e)}{29}}
\newlabel{fig:pobjfunctest5func2scale5e13}{{48(f)}{29}}
\newlabel{sub@fig:pobjfunctest5func2scale5e13}{{(f)}{29}}
\newlabel{fig:test5func2}{{2}{29}}
\@writefile{lof}{\contentsline {figure}{\numberline {48}{\ignorespaces Modeled padata and coefficients.}}{29}}
\@writefile{lof}{\contentsline {subfigure}{\numberline{(a)}{\ignorespaces {}}}{29}}
\@writefile{lof}{\contentsline {subfigure}{\numberline{(b)}{\ignorespaces {}}}{29}}
\@writefile{lof}{\contentsline {subfigure}{\numberline{(c)}{\ignorespaces {}}}{29}}
\@writefile{lof}{\contentsline {subfigure}{\numberline{(d)}{\ignorespaces {}}}{29}}
\@writefile{lof}{\contentsline {subfigure}{\numberline{(e)}{\ignorespaces {}}}{29}}
\@writefile{lof}{\contentsline {subfigure}{\numberline{(f)}{\ignorespaces {}}}{29}}
\newlabel{fig:padatafunc3scale1e0}{{49(a)}{30}}
\newlabel{sub@fig:padatafunc3scale1e0}{{(a)}{30}}
\newlabel{fig:padatafunc3scale1e-6}{{49(b)}{30}}
\newlabel{sub@fig:padatafunc3scale1e-6}{{(b)}{30}}
\newlabel{fig:padatafunc3scale5e13}{{49(c)}{30}}
\newlabel{sub@fig:padatafunc3scale5e13}{{(c)}{30}}
\newlabel{fig:pobjfunctest5func3scale1e0}{{49(d)}{30}}
\newlabel{sub@fig:pobjfunctest5func3scale1e0}{{(d)}{30}}
\newlabel{fig:pobjfunctest5func3scale1e-6}{{49(e)}{30}}
\newlabel{sub@fig:pobjfunctest5func3scale1e-6}{{(e)}{30}}
\newlabel{fig:pobjfunctest5func3scale5e13}{{49(f)}{30}}
\newlabel{sub@fig:pobjfunctest5func3scale5e13}{{(f)}{30}}
\newlabel{fig:test5func3}{{2}{30}}
\@writefile{lof}{\contentsline {figure}{\numberline {49}{\ignorespaces Modeled padata and coefficients.}}{30}}
\@writefile{lof}{\contentsline {subfigure}{\numberline{(a)}{\ignorespaces {}}}{30}}
\@writefile{lof}{\contentsline {subfigure}{\numberline{(b)}{\ignorespaces {}}}{30}}
\@writefile{lof}{\contentsline {subfigure}{\numberline{(c)}{\ignorespaces {}}}{30}}
\@writefile{lof}{\contentsline {subfigure}{\numberline{(d)}{\ignorespaces {}}}{30}}
\@writefile{lof}{\contentsline {subfigure}{\numberline{(e)}{\ignorespaces {}}}{30}}
\@writefile{lof}{\contentsline {subfigure}{\numberline{(f)}{\ignorespaces {}}}{30}}
\newlabel{fig:padatafunc4scale1e0}{{50(a)}{30}}
\newlabel{sub@fig:padatafunc4scale1e0}{{(a)}{30}}
\newlabel{fig:padatafunc4scale1e-6}{{50(b)}{30}}
\newlabel{sub@fig:padatafunc4scale1e-6}{{(b)}{30}}
\newlabel{fig:padatafunc4scale5e13}{{50(c)}{30}}
\newlabel{sub@fig:padatafunc4scale5e13}{{(c)}{30}}
\newlabel{fig:pobjfunctest5func4scale1e0}{{50(d)}{30}}
\newlabel{sub@fig:pobjfunctest5func4scale1e0}{{(d)}{30}}
\newlabel{fig:pobjfunctest5func4scale1e-6}{{50(e)}{30}}
\newlabel{sub@fig:pobjfunctest5func4scale1e-6}{{(e)}{30}}
\newlabel{fig:pobjfunctest5func4scale5e13}{{50(f)}{30}}
\newlabel{sub@fig:pobjfunctest5func4scale5e13}{{(f)}{30}}
\newlabel{fig:test3func4}{{2}{30}}
\@writefile{lof}{\contentsline {figure}{\numberline {50}{\ignorespaces Modeled data and coefficients.}}{30}}
\@writefile{lof}{\contentsline {subfigure}{\numberline{(a)}{\ignorespaces {}}}{30}}
\@writefile{lof}{\contentsline {subfigure}{\numberline{(b)}{\ignorespaces {}}}{30}}
\@writefile{lof}{\contentsline {subfigure}{\numberline{(c)}{\ignorespaces {}}}{30}}
\@writefile{lof}{\contentsline {subfigure}{\numberline{(d)}{\ignorespaces {}}}{30}}
\@writefile{lof}{\contentsline {subfigure}{\numberline{(e)}{\ignorespaces {}}}{30}}
\@writefile{lof}{\contentsline {subfigure}{\numberline{(f)}{\ignorespaces {}}}{30}}
\newlabel{fig:eamodeleddata}{{2}{31}}
\@writefile{lof}{\contentsline {figure}{\numberline {51}{\ignorespaces Modeled data.}}{31}}
\newlabel{fig:eadatafunc1scale1e0}{{52(a)}{31}}
\newlabel{sub@fig:eadatafunc1scale1e0}{{(a)}{31}}
\newlabel{fig:eadatafunc1scale1e-6}{{52(b)}{31}}
\newlabel{sub@fig:eadatafunc1scale1e-6}{{(b)}{31}}
\newlabel{fig:eadatafunc1scale5e13}{{52(c)}{31}}
\newlabel{sub@fig:eadatafunc1scale5e13}{{(c)}{31}}
\newlabel{fig:objfunctest6func1scale1e0}{{52(d)}{31}}
\newlabel{sub@fig:objfunctest6func1scale1e0}{{(d)}{31}}
\newlabel{fig:objfunctest6func1scale1e-6}{{52(e)}{31}}
\newlabel{sub@fig:objfunctest6func1scale1e-6}{{(e)}{31}}
\newlabel{fig:objfunctest6func1scale5e13}{{52(f)}{31}}
\newlabel{sub@fig:objfunctest6func1scale5e13}{{(f)}{31}}
\newlabel{fig:test6func1}{{2}{31}}
\@writefile{lof}{\contentsline {figure}{\numberline {52}{\ignorespaces Modeled eadata and coefficients.}}{31}}
\@writefile{lof}{\contentsline {subfigure}{\numberline{(a)}{\ignorespaces {}}}{31}}
\@writefile{lof}{\contentsline {subfigure}{\numberline{(b)}{\ignorespaces {}}}{31}}
\@writefile{lof}{\contentsline {subfigure}{\numberline{(c)}{\ignorespaces {}}}{31}}
\@writefile{lof}{\contentsline {subfigure}{\numberline{(d)}{\ignorespaces {}}}{31}}
\@writefile{lof}{\contentsline {subfigure}{\numberline{(e)}{\ignorespaces {}}}{31}}
\@writefile{lof}{\contentsline {subfigure}{\numberline{(f)}{\ignorespaces {}}}{31}}
\newlabel{fig:eadatafunc2scale1e0}{{53(a)}{32}}
\newlabel{sub@fig:eadatafunc2scale1e0}{{(a)}{32}}
\newlabel{fig:eadatafunc2scale1e-6}{{53(b)}{32}}
\newlabel{sub@fig:eadatafunc2scale1e-6}{{(b)}{32}}
\newlabel{fig:eadatafunc2scale5e13}{{53(c)}{32}}
\newlabel{sub@fig:eadatafunc2scale5e13}{{(c)}{32}}
\newlabel{fig:objfunctest6func2scale1e0}{{53(d)}{32}}
\newlabel{sub@fig:objfunctest6func2scale1e0}{{(d)}{32}}
\newlabel{fig:objfunctest6func2scale1e-6}{{53(e)}{32}}
\newlabel{sub@fig:objfunctest6func2scale1e-6}{{(e)}{32}}
\newlabel{fig:objfunctest6func2scale5e13}{{53(f)}{32}}
\newlabel{sub@fig:objfunctest6func2scale5e13}{{(f)}{32}}
\newlabel{fig:test6func2}{{2}{32}}
\@writefile{lof}{\contentsline {figure}{\numberline {53}{\ignorespaces Modeled eadata and coefficients.}}{32}}
\@writefile{lof}{\contentsline {subfigure}{\numberline{(a)}{\ignorespaces {}}}{32}}
\@writefile{lof}{\contentsline {subfigure}{\numberline{(b)}{\ignorespaces {}}}{32}}
\@writefile{lof}{\contentsline {subfigure}{\numberline{(c)}{\ignorespaces {}}}{32}}
\@writefile{lof}{\contentsline {subfigure}{\numberline{(d)}{\ignorespaces {}}}{32}}
\@writefile{lof}{\contentsline {subfigure}{\numberline{(e)}{\ignorespaces {}}}{32}}
\@writefile{lof}{\contentsline {subfigure}{\numberline{(f)}{\ignorespaces {}}}{32}}
\newlabel{fig:eadatafunc3scale1e0}{{54(a)}{32}}
\newlabel{sub@fig:eadatafunc3scale1e0}{{(a)}{32}}
\newlabel{fig:eadatafunc3scale1e-6}{{54(b)}{32}}
\newlabel{sub@fig:eadatafunc3scale1e-6}{{(b)}{32}}
\newlabel{fig:eadatafunc3scale5e13}{{54(c)}{32}}
\newlabel{sub@fig:eadatafunc3scale5e13}{{(c)}{32}}
\newlabel{fig:objfunctest6func3scale1e0}{{54(d)}{32}}
\newlabel{sub@fig:objfunctest6func3scale1e0}{{(d)}{32}}
\newlabel{fig:objfunctest6func3scale1e-6}{{54(e)}{32}}
\newlabel{sub@fig:objfunctest6func3scale1e-6}{{(e)}{32}}
\newlabel{fig:objfunctest6func3scale5e13}{{54(f)}{32}}
\newlabel{sub@fig:objfunctest6func3scale5e13}{{(f)}{32}}
\newlabel{fig:test6func3}{{2}{32}}
\@writefile{lof}{\contentsline {figure}{\numberline {54}{\ignorespaces Modeled eadata and coefficients.}}{32}}
\@writefile{lof}{\contentsline {subfigure}{\numberline{(a)}{\ignorespaces {}}}{32}}
\@writefile{lof}{\contentsline {subfigure}{\numberline{(b)}{\ignorespaces {}}}{32}}
\@writefile{lof}{\contentsline {subfigure}{\numberline{(c)}{\ignorespaces {}}}{32}}
\@writefile{lof}{\contentsline {subfigure}{\numberline{(d)}{\ignorespaces {}}}{32}}
\@writefile{lof}{\contentsline {subfigure}{\numberline{(e)}{\ignorespaces {}}}{32}}
\@writefile{lof}{\contentsline {subfigure}{\numberline{(f)}{\ignorespaces {}}}{32}}
\newlabel{fig:eadatafunc4scale1e0}{{55(a)}{33}}
\newlabel{sub@fig:eadatafunc4scale1e0}{{(a)}{33}}
\newlabel{fig:eadatafunc4scale1e-6}{{55(b)}{33}}
\newlabel{sub@fig:eadatafunc4scale1e-6}{{(b)}{33}}
\newlabel{fig:eadatafunc4scale5e13}{{55(c)}{33}}
\newlabel{sub@fig:eadatafunc4scale5e13}{{(c)}{33}}
\newlabel{fig:objfunctest6func4scale1e0}{{55(d)}{33}}
\newlabel{sub@fig:objfunctest6func4scale1e0}{{(d)}{33}}
\newlabel{fig:objfunctest6func4scale1e-6}{{55(e)}{33}}
\newlabel{sub@fig:objfunctest6func4scale1e-6}{{(e)}{33}}
\newlabel{fig:objfunctest6func4scale5e13}{{55(f)}{33}}
\newlabel{sub@fig:objfunctest6func4scale5e13}{{(f)}{33}}
\newlabel{fig:test3func4}{{2}{33}}
\@writefile{lof}{\contentsline {figure}{\numberline {55}{\ignorespaces Modeled data and coefficients.}}{33}}
\@writefile{lof}{\contentsline {subfigure}{\numberline{(a)}{\ignorespaces {}}}{33}}
\@writefile{lof}{\contentsline {subfigure}{\numberline{(b)}{\ignorespaces {}}}{33}}
\@writefile{lof}{\contentsline {subfigure}{\numberline{(c)}{\ignorespaces {}}}{33}}
\@writefile{lof}{\contentsline {subfigure}{\numberline{(d)}{\ignorespaces {}}}{33}}
\@writefile{lof}{\contentsline {subfigure}{\numberline{(e)}{\ignorespaces {}}}{33}}
\@writefile{lof}{\contentsline {subfigure}{\numberline{(f)}{\ignorespaces {}}}{33}}
\newlabel{fig:peamodeleddata}{{2}{33}}
\@writefile{lof}{\contentsline {figure}{\numberline {56}{\ignorespaces Modeled data.}}{33}}
\newlabel{fig:peadatafunc1scale1e0}{{57(a)}{34}}
\newlabel{sub@fig:peadatafunc1scale1e0}{{(a)}{34}}
\newlabel{fig:peadatafunc1scale1e-6}{{57(b)}{34}}
\newlabel{sub@fig:peadatafunc1scale1e-6}{{(b)}{34}}
\newlabel{fig:peadatafunc1scale5e13}{{57(c)}{34}}
\newlabel{sub@fig:peadatafunc1scale5e13}{{(c)}{34}}
\newlabel{fig:pobjfunctest6func1scale1e0}{{57(d)}{34}}
\newlabel{sub@fig:pobjfunctest6func1scale1e0}{{(d)}{34}}
\newlabel{fig:pobjfunctest6func1scale1e-6}{{57(e)}{34}}
\newlabel{sub@fig:pobjfunctest6func1scale1e-6}{{(e)}{34}}
\newlabel{fig:pobjfunctest6func1scale5e13}{{57(f)}{34}}
\newlabel{sub@fig:pobjfunctest6func1scale5e13}{{(f)}{34}}
\newlabel{fig:test6func1}{{2}{34}}
\@writefile{lof}{\contentsline {figure}{\numberline {57}{\ignorespaces Modeled peadata and coefficients.}}{34}}
\@writefile{lof}{\contentsline {subfigure}{\numberline{(a)}{\ignorespaces {}}}{34}}
\@writefile{lof}{\contentsline {subfigure}{\numberline{(b)}{\ignorespaces {}}}{34}}
\@writefile{lof}{\contentsline {subfigure}{\numberline{(c)}{\ignorespaces {}}}{34}}
\@writefile{lof}{\contentsline {subfigure}{\numberline{(d)}{\ignorespaces {}}}{34}}
\@writefile{lof}{\contentsline {subfigure}{\numberline{(e)}{\ignorespaces {}}}{34}}
\@writefile{lof}{\contentsline {subfigure}{\numberline{(f)}{\ignorespaces {}}}{34}}
\newlabel{fig:peadatafunc2scale1e0}{{58(a)}{34}}
\newlabel{sub@fig:peadatafunc2scale1e0}{{(a)}{34}}
\newlabel{fig:peadatafunc2scale1e-6}{{58(b)}{34}}
\newlabel{sub@fig:peadatafunc2scale1e-6}{{(b)}{34}}
\newlabel{fig:peadatafunc2scale5e13}{{58(c)}{34}}
\newlabel{sub@fig:peadatafunc2scale5e13}{{(c)}{34}}
\newlabel{fig:pobjfunctest6func2scale1e0}{{58(d)}{34}}
\newlabel{sub@fig:pobjfunctest6func2scale1e0}{{(d)}{34}}
\newlabel{fig:pobjfunctest6func2scale1e-6}{{58(e)}{34}}
\newlabel{sub@fig:pobjfunctest6func2scale1e-6}{{(e)}{34}}
\newlabel{fig:pobjfunctest6func2scale5e13}{{58(f)}{34}}
\newlabel{sub@fig:pobjfunctest6func2scale5e13}{{(f)}{34}}
\newlabel{fig:test6func2}{{2}{34}}
\@writefile{lof}{\contentsline {figure}{\numberline {58}{\ignorespaces Modeled peadata and coefficients.}}{34}}
\@writefile{lof}{\contentsline {subfigure}{\numberline{(a)}{\ignorespaces {}}}{34}}
\@writefile{lof}{\contentsline {subfigure}{\numberline{(b)}{\ignorespaces {}}}{34}}
\@writefile{lof}{\contentsline {subfigure}{\numberline{(c)}{\ignorespaces {}}}{34}}
\@writefile{lof}{\contentsline {subfigure}{\numberline{(d)}{\ignorespaces {}}}{34}}
\@writefile{lof}{\contentsline {subfigure}{\numberline{(e)}{\ignorespaces {}}}{34}}
\@writefile{lof}{\contentsline {subfigure}{\numberline{(f)}{\ignorespaces {}}}{34}}
\newlabel{fig:peadatafunc3scale1e0}{{59(a)}{35}}
\newlabel{sub@fig:peadatafunc3scale1e0}{{(a)}{35}}
\newlabel{fig:peadatafunc3scale1e-6}{{59(b)}{35}}
\newlabel{sub@fig:peadatafunc3scale1e-6}{{(b)}{35}}
\newlabel{fig:peadatafunc3scale5e13}{{59(c)}{35}}
\newlabel{sub@fig:peadatafunc3scale5e13}{{(c)}{35}}
\newlabel{fig:pobjfunctest6func3scale1e0}{{59(d)}{35}}
\newlabel{sub@fig:pobjfunctest6func3scale1e0}{{(d)}{35}}
\newlabel{fig:pobjfunctest6func3scale1e-6}{{59(e)}{35}}
\newlabel{sub@fig:pobjfunctest6func3scale1e-6}{{(e)}{35}}
\newlabel{fig:pobjfunctest6func3scale5e13}{{59(f)}{35}}
\newlabel{sub@fig:pobjfunctest6func3scale5e13}{{(f)}{35}}
\newlabel{fig:test6func3}{{2}{35}}
\@writefile{lof}{\contentsline {figure}{\numberline {59}{\ignorespaces Modeled peadata and coefficients.}}{35}}
\@writefile{lof}{\contentsline {subfigure}{\numberline{(a)}{\ignorespaces {}}}{35}}
\@writefile{lof}{\contentsline {subfigure}{\numberline{(b)}{\ignorespaces {}}}{35}}
\@writefile{lof}{\contentsline {subfigure}{\numberline{(c)}{\ignorespaces {}}}{35}}
\@writefile{lof}{\contentsline {subfigure}{\numberline{(d)}{\ignorespaces {}}}{35}}
\@writefile{lof}{\contentsline {subfigure}{\numberline{(e)}{\ignorespaces {}}}{35}}
\@writefile{lof}{\contentsline {subfigure}{\numberline{(f)}{\ignorespaces {}}}{35}}
\newlabel{fig:peadatafunc4scale1e0}{{60(a)}{35}}
\newlabel{sub@fig:peadatafunc4scale1e0}{{(a)}{35}}
\newlabel{fig:peadatafunc4scale1e-6}{{60(b)}{35}}
\newlabel{sub@fig:peadatafunc4scale1e-6}{{(b)}{35}}
\newlabel{fig:peadatafunc4scale5e13}{{60(c)}{35}}
\newlabel{sub@fig:peadatafunc4scale5e13}{{(c)}{35}}
\newlabel{fig:pobjfunctest6func4scale1e0}{{60(d)}{35}}
\newlabel{sub@fig:pobjfunctest6func4scale1e0}{{(d)}{35}}
\newlabel{fig:pobjfunctest6func4scale1e-6}{{60(e)}{35}}
\newlabel{sub@fig:pobjfunctest6func4scale1e-6}{{(e)}{35}}
\newlabel{fig:pobjfunctest6func4scale5e13}{{60(f)}{35}}
\newlabel{sub@fig:pobjfunctest6func4scale5e13}{{(f)}{35}}
\newlabel{fig:test3func4}{{2}{35}}
\@writefile{lof}{\contentsline {figure}{\numberline {60}{\ignorespaces Modeled data and coefficients.}}{35}}
\@writefile{lof}{\contentsline {subfigure}{\numberline{(a)}{\ignorespaces {}}}{35}}
\@writefile{lof}{\contentsline {subfigure}{\numberline{(b)}{\ignorespaces {}}}{35}}
\@writefile{lof}{\contentsline {subfigure}{\numberline{(c)}{\ignorespaces {}}}{35}}
\@writefile{lof}{\contentsline {subfigure}{\numberline{(d)}{\ignorespaces {}}}{35}}
\@writefile{lof}{\contentsline {subfigure}{\numberline{(e)}{\ignorespaces {}}}{35}}
\@writefile{lof}{\contentsline {subfigure}{\numberline{(f)}{\ignorespaces {}}}{35}}
\newlabel{fig:aemodeleddata}{{2}{36}}
\@writefile{lof}{\contentsline {figure}{\numberline {61}{\ignorespaces Modeled data.}}{36}}
\newlabel{fig:aedatafunc1scale1e0}{{62(a)}{36}}
\newlabel{sub@fig:aedatafunc1scale1e0}{{(a)}{36}}
\newlabel{fig:aedatafunc1scale1e-6}{{62(b)}{36}}
\newlabel{sub@fig:aedatafunc1scale1e-6}{{(b)}{36}}
\newlabel{fig:aedatafunc1scale5e13}{{62(c)}{36}}
\newlabel{sub@fig:aedatafunc1scale5e13}{{(c)}{36}}
\newlabel{fig:objfunctest7func1scale1e0}{{62(d)}{36}}
\newlabel{sub@fig:objfunctest7func1scale1e0}{{(d)}{36}}
\newlabel{fig:objfunctest7func1scale1e-6}{{62(e)}{36}}
\newlabel{sub@fig:objfunctest7func1scale1e-6}{{(e)}{36}}
\newlabel{fig:objfunctest7func1scale5e13}{{62(f)}{36}}
\newlabel{sub@fig:objfunctest7func1scale5e13}{{(f)}{36}}
\newlabel{fig:test7func1}{{2}{36}}
\@writefile{lof}{\contentsline {figure}{\numberline {62}{\ignorespaces Modeled aedata and coefficients.}}{36}}
\@writefile{lof}{\contentsline {subfigure}{\numberline{(a)}{\ignorespaces {}}}{36}}
\@writefile{lof}{\contentsline {subfigure}{\numberline{(b)}{\ignorespaces {}}}{36}}
\@writefile{lof}{\contentsline {subfigure}{\numberline{(c)}{\ignorespaces {}}}{36}}
\@writefile{lof}{\contentsline {subfigure}{\numberline{(d)}{\ignorespaces {}}}{36}}
\@writefile{lof}{\contentsline {subfigure}{\numberline{(e)}{\ignorespaces {}}}{36}}
\@writefile{lof}{\contentsline {subfigure}{\numberline{(f)}{\ignorespaces {}}}{36}}
\newlabel{fig:aedatafunc2scale1e0}{{63(a)}{37}}
\newlabel{sub@fig:aedatafunc2scale1e0}{{(a)}{37}}
\newlabel{fig:aedatafunc2scale1e-6}{{63(b)}{37}}
\newlabel{sub@fig:aedatafunc2scale1e-6}{{(b)}{37}}
\newlabel{fig:aedatafunc2scale5e13}{{63(c)}{37}}
\newlabel{sub@fig:aedatafunc2scale5e13}{{(c)}{37}}
\newlabel{fig:objfunctest7func2scale1e0}{{63(d)}{37}}
\newlabel{sub@fig:objfunctest7func2scale1e0}{{(d)}{37}}
\newlabel{fig:objfunctest7func2scale1e-6}{{63(e)}{37}}
\newlabel{sub@fig:objfunctest7func2scale1e-6}{{(e)}{37}}
\newlabel{fig:objfunctest7func2scale5e13}{{63(f)}{37}}
\newlabel{sub@fig:objfunctest7func2scale5e13}{{(f)}{37}}
\newlabel{fig:test7func2}{{2}{37}}
\@writefile{lof}{\contentsline {figure}{\numberline {63}{\ignorespaces Modeled aedata and coefficients.}}{37}}
\@writefile{lof}{\contentsline {subfigure}{\numberline{(a)}{\ignorespaces {}}}{37}}
\@writefile{lof}{\contentsline {subfigure}{\numberline{(b)}{\ignorespaces {}}}{37}}
\@writefile{lof}{\contentsline {subfigure}{\numberline{(c)}{\ignorespaces {}}}{37}}
\@writefile{lof}{\contentsline {subfigure}{\numberline{(d)}{\ignorespaces {}}}{37}}
\@writefile{lof}{\contentsline {subfigure}{\numberline{(e)}{\ignorespaces {}}}{37}}
\@writefile{lof}{\contentsline {subfigure}{\numberline{(f)}{\ignorespaces {}}}{37}}
\newlabel{fig:aedatafunc3scale1e0}{{64(a)}{37}}
\newlabel{sub@fig:aedatafunc3scale1e0}{{(a)}{37}}
\newlabel{fig:aedatafunc3scale1e-6}{{64(b)}{37}}
\newlabel{sub@fig:aedatafunc3scale1e-6}{{(b)}{37}}
\newlabel{fig:aedatafunc3scale5e13}{{64(c)}{37}}
\newlabel{sub@fig:aedatafunc3scale5e13}{{(c)}{37}}
\newlabel{fig:objfunctest7func3scale1e0}{{64(d)}{37}}
\newlabel{sub@fig:objfunctest7func3scale1e0}{{(d)}{37}}
\newlabel{fig:objfunctest7func3scale1e-6}{{64(e)}{37}}
\newlabel{sub@fig:objfunctest7func3scale1e-6}{{(e)}{37}}
\newlabel{fig:objfunctest7func3scale5e13}{{64(f)}{37}}
\newlabel{sub@fig:objfunctest7func3scale5e13}{{(f)}{37}}
\newlabel{fig:test7func3}{{2}{37}}
\@writefile{lof}{\contentsline {figure}{\numberline {64}{\ignorespaces Modeled aedata and coefficients.}}{37}}
\@writefile{lof}{\contentsline {subfigure}{\numberline{(a)}{\ignorespaces {}}}{37}}
\@writefile{lof}{\contentsline {subfigure}{\numberline{(b)}{\ignorespaces {}}}{37}}
\@writefile{lof}{\contentsline {subfigure}{\numberline{(c)}{\ignorespaces {}}}{37}}
\@writefile{lof}{\contentsline {subfigure}{\numberline{(d)}{\ignorespaces {}}}{37}}
\@writefile{lof}{\contentsline {subfigure}{\numberline{(e)}{\ignorespaces {}}}{37}}
\@writefile{lof}{\contentsline {subfigure}{\numberline{(f)}{\ignorespaces {}}}{37}}
\newlabel{fig:aedatafunc4scale1e0}{{65(a)}{38}}
\newlabel{sub@fig:aedatafunc4scale1e0}{{(a)}{38}}
\newlabel{fig:aedatafunc4scale1e-6}{{65(b)}{38}}
\newlabel{sub@fig:aedatafunc4scale1e-6}{{(b)}{38}}
\newlabel{fig:aedatafunc4scale5e13}{{65(c)}{38}}
\newlabel{sub@fig:aedatafunc4scale5e13}{{(c)}{38}}
\newlabel{fig:objfunctest7func4scale1e0}{{65(d)}{38}}
\newlabel{sub@fig:objfunctest7func4scale1e0}{{(d)}{38}}
\newlabel{fig:objfunctest7func4scale1e-6}{{65(e)}{38}}
\newlabel{sub@fig:objfunctest7func4scale1e-6}{{(e)}{38}}
\newlabel{fig:objfunctest7func4scale5e13}{{65(f)}{38}}
\newlabel{sub@fig:objfunctest7func4scale5e13}{{(f)}{38}}
\newlabel{fig:test3func4}{{2}{38}}
\@writefile{lof}{\contentsline {figure}{\numberline {65}{\ignorespaces Modeled data and coefficients.}}{38}}
\@writefile{lof}{\contentsline {subfigure}{\numberline{(a)}{\ignorespaces {}}}{38}}
\@writefile{lof}{\contentsline {subfigure}{\numberline{(b)}{\ignorespaces {}}}{38}}
\@writefile{lof}{\contentsline {subfigure}{\numberline{(c)}{\ignorespaces {}}}{38}}
\@writefile{lof}{\contentsline {subfigure}{\numberline{(d)}{\ignorespaces {}}}{38}}
\@writefile{lof}{\contentsline {subfigure}{\numberline{(e)}{\ignorespaces {}}}{38}}
\@writefile{lof}{\contentsline {subfigure}{\numberline{(f)}{\ignorespaces {}}}{38}}
\newlabel{fig:paemodeleddata}{{2}{38}}
\@writefile{lof}{\contentsline {figure}{\numberline {66}{\ignorespaces Modeled data.}}{38}}
\newlabel{fig:paedatafunc1scale1e0}{{67(a)}{39}}
\newlabel{sub@fig:paedatafunc1scale1e0}{{(a)}{39}}
\newlabel{fig:paedatafunc1scale1e-6}{{67(b)}{39}}
\newlabel{sub@fig:paedatafunc1scale1e-6}{{(b)}{39}}
\newlabel{fig:paedatafunc1scale5e13}{{67(c)}{39}}
\newlabel{sub@fig:paedatafunc1scale5e13}{{(c)}{39}}
\newlabel{fig:pobjfunctest7func1scale1e0}{{67(d)}{39}}
\newlabel{sub@fig:pobjfunctest7func1scale1e0}{{(d)}{39}}
\newlabel{fig:pobjfunctest7func1scale1e-6}{{67(e)}{39}}
\newlabel{sub@fig:pobjfunctest7func1scale1e-6}{{(e)}{39}}
\newlabel{fig:pobjfunctest7func1scale5e13}{{67(f)}{39}}
\newlabel{sub@fig:pobjfunctest7func1scale5e13}{{(f)}{39}}
\newlabel{fig:test7func1}{{2}{39}}
\@writefile{lof}{\contentsline {figure}{\numberline {67}{\ignorespaces Modeled paedata and coefficients.}}{39}}
\@writefile{lof}{\contentsline {subfigure}{\numberline{(a)}{\ignorespaces {}}}{39}}
\@writefile{lof}{\contentsline {subfigure}{\numberline{(b)}{\ignorespaces {}}}{39}}
\@writefile{lof}{\contentsline {subfigure}{\numberline{(c)}{\ignorespaces {}}}{39}}
\@writefile{lof}{\contentsline {subfigure}{\numberline{(d)}{\ignorespaces {}}}{39}}
\@writefile{lof}{\contentsline {subfigure}{\numberline{(e)}{\ignorespaces {}}}{39}}
\@writefile{lof}{\contentsline {subfigure}{\numberline{(f)}{\ignorespaces {}}}{39}}
\newlabel{fig:paedatafunc2scale1e0}{{68(a)}{39}}
\newlabel{sub@fig:paedatafunc2scale1e0}{{(a)}{39}}
\newlabel{fig:paedatafunc2scale1e-6}{{68(b)}{39}}
\newlabel{sub@fig:paedatafunc2scale1e-6}{{(b)}{39}}
\newlabel{fig:paedatafunc2scale5e13}{{68(c)}{39}}
\newlabel{sub@fig:paedatafunc2scale5e13}{{(c)}{39}}
\newlabel{fig:pobjfunctest7func2scale1e0}{{68(d)}{39}}
\newlabel{sub@fig:pobjfunctest7func2scale1e0}{{(d)}{39}}
\newlabel{fig:pobjfunctest7func2scale1e-6}{{68(e)}{39}}
\newlabel{sub@fig:pobjfunctest7func2scale1e-6}{{(e)}{39}}
\newlabel{fig:pobjfunctest7func2scale5e13}{{68(f)}{39}}
\newlabel{sub@fig:pobjfunctest7func2scale5e13}{{(f)}{39}}
\newlabel{fig:test7func2}{{2}{39}}
\@writefile{lof}{\contentsline {figure}{\numberline {68}{\ignorespaces Modeled paedata and coefficients.}}{39}}
\@writefile{lof}{\contentsline {subfigure}{\numberline{(a)}{\ignorespaces {}}}{39}}
\@writefile{lof}{\contentsline {subfigure}{\numberline{(b)}{\ignorespaces {}}}{39}}
\@writefile{lof}{\contentsline {subfigure}{\numberline{(c)}{\ignorespaces {}}}{39}}
\@writefile{lof}{\contentsline {subfigure}{\numberline{(d)}{\ignorespaces {}}}{39}}
\@writefile{lof}{\contentsline {subfigure}{\numberline{(e)}{\ignorespaces {}}}{39}}
\@writefile{lof}{\contentsline {subfigure}{\numberline{(f)}{\ignorespaces {}}}{39}}
\newlabel{fig:paedatafunc3scale1e0}{{69(a)}{40}}
\newlabel{sub@fig:paedatafunc3scale1e0}{{(a)}{40}}
\newlabel{fig:paedatafunc3scale1e-6}{{69(b)}{40}}
\newlabel{sub@fig:paedatafunc3scale1e-6}{{(b)}{40}}
\newlabel{fig:paedatafunc3scale5e13}{{69(c)}{40}}
\newlabel{sub@fig:paedatafunc3scale5e13}{{(c)}{40}}
\newlabel{fig:pobjfunctest7func3scale1e0}{{69(d)}{40}}
\newlabel{sub@fig:pobjfunctest7func3scale1e0}{{(d)}{40}}
\newlabel{fig:pobjfunctest7func3scale1e-6}{{69(e)}{40}}
\newlabel{sub@fig:pobjfunctest7func3scale1e-6}{{(e)}{40}}
\newlabel{fig:pobjfunctest7func3scale5e13}{{69(f)}{40}}
\newlabel{sub@fig:pobjfunctest7func3scale5e13}{{(f)}{40}}
\newlabel{fig:test7func3}{{2}{40}}
\@writefile{lof}{\contentsline {figure}{\numberline {69}{\ignorespaces Modeled paedata and coefficients.}}{40}}
\@writefile{lof}{\contentsline {subfigure}{\numberline{(a)}{\ignorespaces {}}}{40}}
\@writefile{lof}{\contentsline {subfigure}{\numberline{(b)}{\ignorespaces {}}}{40}}
\@writefile{lof}{\contentsline {subfigure}{\numberline{(c)}{\ignorespaces {}}}{40}}
\@writefile{lof}{\contentsline {subfigure}{\numberline{(d)}{\ignorespaces {}}}{40}}
\@writefile{lof}{\contentsline {subfigure}{\numberline{(e)}{\ignorespaces {}}}{40}}
\@writefile{lof}{\contentsline {subfigure}{\numberline{(f)}{\ignorespaces {}}}{40}}
\newlabel{fig:paedatafunc4scale1e0}{{70(a)}{40}}
\newlabel{sub@fig:paedatafunc4scale1e0}{{(a)}{40}}
\newlabel{fig:paedatafunc4scale1e-6}{{70(b)}{40}}
\newlabel{sub@fig:paedatafunc4scale1e-6}{{(b)}{40}}
\newlabel{fig:paedatafunc4scale5e13}{{70(c)}{40}}
\newlabel{sub@fig:paedatafunc4scale5e13}{{(c)}{40}}
\newlabel{fig:pobjfunctest7func4scale1e0}{{70(d)}{40}}
\newlabel{sub@fig:pobjfunctest7func4scale1e0}{{(d)}{40}}
\newlabel{fig:pobjfunctest7func4scale1e-6}{{70(e)}{40}}
\newlabel{sub@fig:pobjfunctest7func4scale1e-6}{{(e)}{40}}
\newlabel{fig:pobjfunctest7func4scale5e13}{{70(f)}{40}}
\newlabel{sub@fig:pobjfunctest7func4scale5e13}{{(f)}{40}}
\newlabel{fig:test3func4}{{2}{40}}
\@writefile{lof}{\contentsline {figure}{\numberline {70}{\ignorespaces Modeled data and coefficients.}}{40}}
\@writefile{lof}{\contentsline {subfigure}{\numberline{(a)}{\ignorespaces {}}}{40}}
\@writefile{lof}{\contentsline {subfigure}{\numberline{(b)}{\ignorespaces {}}}{40}}
\@writefile{lof}{\contentsline {subfigure}{\numberline{(c)}{\ignorespaces {}}}{40}}
\@writefile{lof}{\contentsline {subfigure}{\numberline{(d)}{\ignorespaces {}}}{40}}
\@writefile{lof}{\contentsline {subfigure}{\numberline{(e)}{\ignorespaces {}}}{40}}
\@writefile{lof}{\contentsline {subfigure}{\numberline{(f)}{\ignorespaces {}}}{40}}
